<?xml version="1.0"?>
<!DOCTYPE svg PUBLIC '-//W3C//DTD SVG 1.0//EN'
          'http://www.w3.org/TR/2001/REC-SVG-20010904/DTD/svg10.dtd'>
<svg xmlns:xlink="http://www.w3.org/1999/xlink" style="fill-opacity:1; color-rendering:auto; color-interpolation:auto; text-rendering:auto; stroke:black; stroke-linecap:square; stroke-miterlimit:10; shape-rendering:auto; stroke-opacity:1; fill:black; stroke-dasharray:none; font-weight:normal; stroke-width:1; font-family:'Dialog'; font-style:normal; stroke-linejoin:miter; font-size:12px; stroke-dashoffset:0; image-rendering:auto;" width="378" height="204" xmlns="http://www.w3.org/2000/svg"
><!--Generated by the Batik Graphics2D SVG Generator--><defs id="genericDefs"
  /><g
  ><defs id="defs1"
    ><clipPath clipPathUnits="userSpaceOnUse" id="clipPath1"
      ><path d="M0 0 L378 0 L378 204 L0 204 L0 0 Z"
      /></clipPath
      ><font horiz-adv-x="60.009766" id="font1"
      ><font-face ascent="92.822266" descent="23.583984" units-per-em="100" style="font-style:normal; font-family:SansSerif; font-weight:normal;"
        /><missing-glyph horiz-adv-x="60.009766" d="M4.9844 -17.6719 L4.9844 70.5156 L54.9844 70.5156 L54.9844 -17.6719 L4.9844 -17.6719 ZM10.5938 -12.1094 L49.4219 -12.1094 L49.4219 64.8906 L10.5938 64.8906 L10.5938 -12.1094 Z"
        /><glyph unicode="1" horiz-adv-x="63.623047" d="M12.4062 8.2969 L28.5156 8.2969 L28.5156 63.9219 L10.9844 60.4062 L10.9844 69.3906 L28.4219 72.9062 L38.2812 72.9062 L38.2812 8.2969 L54.3906 8.2969 L54.3906 0 L12.4062 0 L12.4062 8.2969 Z"
        /><glyph unicode="i" horiz-adv-x="27.783203" d="M9.4219 54.6875 L18.4062 54.6875 L18.4062 0 L9.4219 0 L9.4219 54.6875 ZM9.4219 75.9844 L18.4062 75.9844 L18.4062 64.5938 L9.4219 64.5938 L9.4219 75.9844 Z"
        /><glyph unicode="9" horiz-adv-x="63.623047" d="M10.9844 1.5156 L10.9844 10.5 Q14.7031 8.7344 18.5078 7.8125 Q22.3125 6.8906 25.9844 6.8906 Q35.75 6.8906 40.8984 13.4531 Q46.0469 20.0156 46.7812 33.4062 Q43.9531 29.2031 39.6016 26.9531 Q35.25 24.7031 29.9844 24.7031 Q19.0469 24.7031 12.6719 31.3203 Q6.2969 37.9375 6.2969 49.4219 Q6.2969 60.6406 12.9375 67.4297 Q19.5781 74.2188 30.6094 74.2188 Q43.2656 74.2188 49.9297 64.5234 Q56.5938 54.8281 56.5938 36.375 Q56.5938 19.1406 48.4141 8.8594 Q40.2344 -1.4219 26.4219 -1.4219 Q22.7031 -1.4219 18.8984 -0.6875 Q15.0938 0.0469 10.9844 1.5156 ZM30.6094 32.4219 Q37.25 32.4219 41.1328 36.9609 Q45.0156 41.5 45.0156 49.4219 Q45.0156 57.2812 41.1328 61.8438 Q37.25 66.4062 30.6094 66.4062 Q23.9688 66.4062 20.0938 61.8438 Q16.2188 57.2812 16.2188 49.4219 Q16.2188 41.5 20.0938 36.9609 Q23.9688 32.4219 30.6094 32.4219 Z"
        /><glyph unicode="e" horiz-adv-x="61.523438" d="M56.2031 29.5938 L56.2031 25.2031 L14.8906 25.2031 Q15.4844 15.9219 20.4844 11.0625 Q25.4844 6.2031 34.4219 6.2031 Q39.5938 6.2031 44.4531 7.4688 Q49.3125 8.7344 54.1094 11.2812 L54.1094 2.7812 Q49.2656 0.7344 44.1875 -0.3438 Q39.1094 -1.4219 33.8906 -1.4219 Q20.7969 -1.4219 13.1562 6.1953 Q5.5156 13.8125 5.5156 26.8125 Q5.5156 40.2344 12.7656 48.1172 Q20.0156 56 32.3281 56 Q43.3594 56 49.7812 48.8984 Q56.2031 41.7969 56.2031 29.5938 ZM47.2188 32.2344 Q47.125 39.5938 43.0938 43.9922 Q39.0625 48.3906 32.4219 48.3906 Q24.9062 48.3906 20.3906 44.1406 Q15.875 39.8906 15.1875 32.1719 L47.2188 32.2344 Z"
        /><glyph unicode="S" horiz-adv-x="63.476562" d="M53.5156 70.5156 L53.5156 60.8906 Q47.9062 63.5781 42.9219 64.8984 Q37.9375 66.2188 33.2969 66.2188 Q25.25 66.2188 20.875 63.0938 Q16.5 59.9688 16.5 54.2031 Q16.5 49.3594 19.4062 46.8984 Q22.3125 44.4375 30.4219 42.9219 L36.375 41.7031 Q47.4062 39.5938 52.6562 34.2969 Q57.9062 29 57.9062 20.125 Q57.9062 9.5156 50.8047 4.0469 Q43.7031 -1.4219 29.9844 -1.4219 Q24.8125 -1.4219 18.9766 -0.25 Q13.1406 0.9219 6.8906 3.2188 L6.8906 13.375 Q12.8906 10.0156 18.6562 8.3047 Q24.4219 6.5938 29.9844 6.5938 Q38.4219 6.5938 43.0156 9.9141 Q47.6094 13.2344 47.6094 19.3906 Q47.6094 24.75 44.3125 27.7812 Q41.0156 30.8125 33.5 32.3281 L27.4844 33.5 Q16.4531 35.6875 11.5234 40.375 Q6.5938 45.0625 6.5938 53.4219 Q6.5938 63.0938 13.4062 68.6562 Q20.2188 74.2188 32.1719 74.2188 Q37.3125 74.2188 42.6328 73.2891 Q47.9531 72.3594 53.5156 70.5156 Z"
        /><glyph unicode="0" horiz-adv-x="63.623047" d="M31.7812 66.4062 Q24.1719 66.4062 20.3359 58.9141 Q16.5 51.4219 16.5 36.375 Q16.5 21.3906 20.3359 13.8906 Q24.1719 6.3906 31.7812 6.3906 Q39.4531 6.3906 43.2891 13.8906 Q47.125 21.3906 47.125 36.375 Q47.125 51.4219 43.2891 58.9141 Q39.4531 66.4062 31.7812 66.4062 ZM31.7812 74.2188 Q44.0469 74.2188 50.5156 64.5234 Q56.9844 54.8281 56.9844 36.375 Q56.9844 17.9688 50.5156 8.2734 Q44.0469 -1.4219 31.7812 -1.4219 Q19.5312 -1.4219 13.0625 8.2734 Q6.5938 17.9688 6.5938 36.375 Q6.5938 54.8281 13.0625 64.5234 Q19.5312 74.2188 31.7812 74.2188 Z"
        /><glyph unicode="3" horiz-adv-x="63.623047" d="M40.5781 39.3125 Q47.6562 37.7969 51.6328 33.0078 Q55.6094 28.2188 55.6094 21.1875 Q55.6094 10.4062 48.1875 4.4922 Q40.7656 -1.4219 27.0938 -1.4219 Q22.5156 -1.4219 17.6562 -0.5156 Q12.7969 0.3906 7.625 2.2031 L7.625 11.7188 Q11.7188 9.3281 16.6016 8.1094 Q21.4844 6.8906 26.8125 6.8906 Q36.0781 6.8906 40.9375 10.5469 Q45.7969 14.2031 45.7969 21.1875 Q45.7969 27.6406 41.2812 31.2734 Q36.7656 34.9062 28.7188 34.9062 L20.2188 34.9062 L20.2188 43.0156 L29.1094 43.0156 Q36.375 43.0156 40.2344 45.9219 Q44.0938 48.8281 44.0938 54.2969 Q44.0938 59.9062 40.1172 62.9141 Q36.1406 65.9219 28.7188 65.9219 Q24.6562 65.9219 20.0156 65.0391 Q15.375 64.1562 9.8125 62.3125 L9.8125 71.0938 Q15.4375 72.6562 20.3438 73.4375 Q25.25 74.2188 29.5938 74.2188 Q40.8281 74.2188 47.3672 69.1172 Q53.9062 64.0156 53.9062 55.3281 Q53.9062 49.2656 50.4375 45.0938 Q46.9688 40.9219 40.5781 39.3125 Z"
        /><glyph unicode="x" horiz-adv-x="59.179688" d="M54.8906 54.6875 L35.1094 28.0781 L55.9062 0 L45.3125 0 L29.3906 21.4844 L13.4844 0 L2.875 0 L24.125 28.6094 L4.6875 54.6875 L15.2812 54.6875 L29.7812 35.2031 L44.2812 54.6875 L54.8906 54.6875 Z"
        /><glyph unicode="A" horiz-adv-x="68.4082" d="M34.1875 63.1875 L20.7969 26.9062 L47.6094 26.9062 L34.1875 63.1875 ZM28.6094 72.9062 L39.7969 72.9062 L67.5781 0 L57.3281 0 L50.6875 18.7031 L17.8281 18.7031 L11.1875 0 L0.7812 0 L28.6094 72.9062 Z"
        /><glyph unicode="," horiz-adv-x="31.78711" d="M11.7188 12.4062 L22.0156 12.4062 L22.0156 4 L14.0156 -11.625 L7.7188 -11.625 L11.7188 4 L11.7188 12.4062 Z"
        /><glyph unicode="s" horiz-adv-x="52.09961" d="M44.2812 53.0781 L44.2812 44.5781 Q40.4844 46.5312 36.3828 47.5078 Q32.2812 48.4844 27.875 48.4844 Q21.1875 48.4844 17.8438 46.4375 Q14.5 44.3906 14.5 40.2812 Q14.5 37.1562 16.8906 35.375 Q19.2812 33.5938 26.5156 31.9844 L29.5938 31.2969 Q39.1562 29.25 43.1875 25.5156 Q47.2188 21.7812 47.2188 15.0938 Q47.2188 7.4688 41.1875 3.0234 Q35.1562 -1.4219 24.6094 -1.4219 Q20.2188 -1.4219 15.4531 -0.5625 Q10.6875 0.2969 5.4219 2 L5.4219 11.2812 Q10.4062 8.6875 15.2344 7.3984 Q20.0625 6.1094 24.8125 6.1094 Q31.1562 6.1094 34.5703 8.2812 Q37.9844 10.4531 37.9844 14.4062 Q37.9844 18.0625 35.5234 20.0156 Q33.0625 21.9688 24.7031 23.7812 L21.5781 24.5156 Q13.2344 26.2656 9.5234 29.9062 Q5.8125 33.5469 5.8125 39.8906 Q5.8125 47.6094 11.2812 51.8047 Q16.75 56 26.8125 56 Q31.7812 56 36.1797 55.2734 Q40.5781 54.5469 44.2812 53.0781 Z"
        /><glyph unicode="m" horiz-adv-x="97.41211" d="M52 44.1875 Q55.375 50.25 60.0625 53.125 Q64.75 56 71.0938 56 Q79.6406 56 84.2812 50.0234 Q88.9219 44.0469 88.9219 33.0156 L88.9219 0 L79.8906 0 L79.8906 32.7188 Q79.8906 40.5781 77.1016 44.3828 Q74.3125 48.1875 68.6094 48.1875 Q61.625 48.1875 57.5703 43.5547 Q53.5156 38.9219 53.5156 30.9062 L53.5156 0 L44.4844 0 L44.4844 32.7188 Q44.4844 40.625 41.7031 44.4062 Q38.9219 48.1875 33.1094 48.1875 Q26.2188 48.1875 22.1641 43.5312 Q18.1094 38.875 18.1094 30.9062 L18.1094 0 L9.0781 0 L9.0781 54.6875 L18.1094 54.6875 L18.1094 46.1875 Q21.1875 51.2188 25.4844 53.6094 Q29.7812 56 35.6875 56 Q41.6562 56 45.8281 52.9766 Q50 49.9531 52 44.1875 Z"
        /><glyph unicode="7" horiz-adv-x="63.623047" d="M8.2031 72.9062 L55.0781 72.9062 L55.0781 68.7031 L28.6094 0 L18.3125 0 L43.2188 64.5938 L8.2031 64.5938 L8.2031 72.9062 Z"
        /><glyph unicode="5" horiz-adv-x="63.623047" d="M10.7969 72.9062 L49.5156 72.9062 L49.5156 64.5938 L19.8281 64.5938 L19.8281 46.7344 Q21.9688 47.4688 24.1172 47.8281 Q26.2656 48.1875 28.4219 48.1875 Q40.625 48.1875 47.7578 41.5 Q54.8906 34.8125 54.8906 23.3906 Q54.8906 11.625 47.5625 5.1016 Q40.2344 -1.4219 26.9062 -1.4219 Q22.3125 -1.4219 17.5547 -0.6406 Q12.7969 0.1406 7.7188 1.7031 L7.7188 11.625 Q12.1094 9.2344 16.7969 8.0625 Q21.4844 6.8906 26.7031 6.8906 Q35.1562 6.8906 40.0859 11.3281 Q45.0156 15.7656 45.0156 23.3906 Q45.0156 31 40.0859 35.4453 Q35.1562 39.8906 26.7031 39.8906 Q22.75 39.8906 18.8203 39.0156 Q14.8906 38.1406 10.7969 36.2812 L10.7969 72.9062 Z"
        /><glyph unicode=" " horiz-adv-x="31.78711" d=""
        /><glyph unicode=":" horiz-adv-x="33.691406" d="M11.7188 12.4062 L22.0156 12.4062 L22.0156 0 L11.7188 0 L11.7188 12.4062 ZM11.7188 51.7031 L22.0156 51.7031 L22.0156 39.3125 L11.7188 39.3125 L11.7188 51.7031 Z"
        /><glyph unicode="l" horiz-adv-x="27.783203" d="M9.4219 75.9844 L18.4062 75.9844 L18.4062 0 L9.4219 0 L9.4219 75.9844 Z"
        /><glyph unicode="P" horiz-adv-x="60.302734" d="M19.6719 64.7969 L19.6719 37.4062 L32.0781 37.4062 Q38.9688 37.4062 42.7266 40.9688 Q46.4844 44.5312 46.4844 51.125 Q46.4844 57.6719 42.7266 61.2344 Q38.9688 64.7969 32.0781 64.7969 L19.6719 64.7969 ZM9.8125 72.9062 L32.0781 72.9062 Q44.3438 72.9062 50.6172 67.3594 Q56.8906 61.8125 56.8906 51.125 Q56.8906 40.3281 50.6172 34.8125 Q44.3438 29.2969 32.0781 29.2969 L19.6719 29.2969 L19.6719 0 L9.8125 0 L9.8125 72.9062 Z"
        /><glyph unicode="2" horiz-adv-x="63.623047" d="M19.1875 8.2969 L53.6094 8.2969 L53.6094 0 L7.3281 0 L7.3281 8.2969 Q12.9375 14.1094 22.6328 23.8984 Q32.3281 33.6875 34.8125 36.5312 Q39.5469 41.8438 41.4297 45.5312 Q43.3125 49.2188 43.3125 52.7812 Q43.3125 58.5938 39.2344 62.2578 Q35.1562 65.9219 28.6094 65.9219 Q23.9688 65.9219 18.8203 64.3125 Q13.6719 62.7031 7.8125 59.4219 L7.8125 69.3906 Q13.7656 71.7812 18.9453 73 Q24.125 74.2188 28.4219 74.2188 Q39.75 74.2188 46.4844 68.5547 Q53.2188 62.8906 53.2188 53.4219 Q53.2188 48.9219 51.5391 44.8984 Q49.8594 40.875 45.4062 35.4062 Q44.1875 33.9844 37.6484 27.2188 Q31.1094 20.4531 19.1875 8.2969 Z"
        /><glyph unicode="4" horiz-adv-x="63.623047" d="M37.7969 64.3125 L12.8906 25.3906 L37.7969 25.3906 L37.7969 64.3125 ZM35.2031 72.9062 L47.6094 72.9062 L47.6094 25.3906 L58.0156 25.3906 L58.0156 17.1875 L47.6094 17.1875 L47.6094 0 L37.7969 0 L37.7969 17.1875 L4.8906 17.1875 L4.8906 26.7031 L35.2031 72.9062 Z"
        /><glyph unicode="6" horiz-adv-x="63.623047" d="M33.0156 40.375 Q26.375 40.375 22.4922 35.8359 Q18.6094 31.2969 18.6094 23.3906 Q18.6094 15.5312 22.4922 10.9609 Q26.375 6.3906 33.0156 6.3906 Q39.6562 6.3906 43.5312 10.9609 Q47.4062 15.5312 47.4062 23.3906 Q47.4062 31.2969 43.5312 35.8359 Q39.6562 40.375 33.0156 40.375 ZM52.5938 71.2969 L52.5938 62.3125 Q48.875 64.0625 45.0938 64.9922 Q41.3125 65.9219 37.5938 65.9219 Q27.8281 65.9219 22.6797 59.3281 Q17.5312 52.7344 16.7969 39.4062 Q19.6719 43.6562 24.0234 45.9219 Q28.375 48.1875 33.5938 48.1875 Q44.5781 48.1875 50.9531 41.5234 Q57.3281 34.8594 57.3281 23.3906 Q57.3281 12.1562 50.6875 5.3672 Q44.0469 -1.4219 33.0156 -1.4219 Q20.3594 -1.4219 13.6719 8.2734 Q6.9844 17.9688 6.9844 36.375 Q6.9844 53.6562 15.1875 63.9375 Q23.3906 74.2188 37.2031 74.2188 Q40.9219 74.2188 44.7031 73.4844 Q48.4844 72.75 52.5938 71.2969 Z"
        /><glyph unicode="8" horiz-adv-x="63.623047" d="M31.7812 34.625 Q24.75 34.625 20.7266 30.8594 Q16.7031 27.0938 16.7031 20.5156 Q16.7031 13.9219 20.7266 10.1562 Q24.75 6.3906 31.7812 6.3906 Q38.8125 6.3906 42.8672 10.1797 Q46.9219 13.9688 46.9219 20.5156 Q46.9219 27.0938 42.8984 30.8594 Q38.875 34.625 31.7812 34.625 ZM21.9219 38.8125 Q15.5781 40.375 12.0391 44.7266 Q8.5 49.0781 8.5 55.3281 Q8.5 64.0625 14.7266 69.1406 Q20.9531 74.2188 31.7812 74.2188 Q42.6719 74.2188 48.875 69.1406 Q55.0781 64.0625 55.0781 55.3281 Q55.0781 49.0781 51.5391 44.7266 Q48 40.375 41.7031 38.8125 Q48.8281 37.1562 52.8047 32.3203 Q56.7812 27.4844 56.7812 20.5156 Q56.7812 9.9062 50.3125 4.2422 Q43.8438 -1.4219 31.7812 -1.4219 Q19.7344 -1.4219 13.2578 4.2422 Q6.7812 9.9062 6.7812 20.5156 Q6.7812 27.4844 10.7891 32.3203 Q14.7969 37.1562 21.9219 38.8125 ZM18.3125 54.3906 Q18.3125 48.7344 21.8516 45.5625 Q25.3906 42.3906 31.7812 42.3906 Q38.1406 42.3906 41.7266 45.5625 Q45.3125 48.7344 45.3125 54.3906 Q45.3125 60.0625 41.7266 63.2344 Q38.1406 66.4062 31.7812 66.4062 Q25.3906 66.4062 21.8516 63.2344 Q18.3125 60.0625 18.3125 54.3906 Z"
        /><glyph unicode="-" horiz-adv-x="36.083984" d="M4.8906 31.3906 L31.2031 31.3906 L31.2031 23.3906 L4.8906 23.3906 L4.8906 31.3906 Z"
        /><glyph unicode="." horiz-adv-x="31.78711" d="M10.6875 12.4062 L21 12.4062 L21 0 L10.6875 0 L10.6875 12.4062 Z"
        /><glyph unicode="b" horiz-adv-x="63.476562" d="M48.6875 27.2969 Q48.6875 37.2031 44.6094 42.8438 Q40.5312 48.4844 33.4062 48.4844 Q26.2656 48.4844 22.1875 42.8438 Q18.1094 37.2031 18.1094 27.2969 Q18.1094 17.3906 22.1875 11.75 Q26.2656 6.1094 33.4062 6.1094 Q40.5312 6.1094 44.6094 11.75 Q48.6875 17.3906 48.6875 27.2969 ZM18.1094 46.3906 Q20.9531 51.2656 25.2734 53.6328 Q29.5938 56 35.5938 56 Q45.5625 56 51.7891 48.0938 Q58.0156 40.1875 58.0156 27.2969 Q58.0156 14.4062 51.7891 6.4922 Q45.5625 -1.4219 35.5938 -1.4219 Q29.5938 -1.4219 25.2734 0.9531 Q20.9531 3.3281 18.1094 8.2031 L18.1094 0 L9.0781 0 L9.0781 75.9844 L18.1094 75.9844 L18.1094 46.3906 Z"
        /><glyph unicode="o" horiz-adv-x="61.18164" d="M30.6094 48.3906 Q23.3906 48.3906 19.1875 42.75 Q14.9844 37.1094 14.9844 27.2969 Q14.9844 17.4844 19.1641 11.8438 Q23.3438 6.2031 30.6094 6.2031 Q37.7969 6.2031 41.9922 11.8672 Q46.1875 17.5312 46.1875 27.2969 Q46.1875 37.0156 41.9922 42.7031 Q37.7969 48.3906 30.6094 48.3906 ZM30.6094 56 Q42.3281 56 49.0234 48.3828 Q55.7188 40.7656 55.7188 27.2969 Q55.7188 13.875 49.0234 6.2266 Q42.3281 -1.4219 30.6094 -1.4219 Q18.8438 -1.4219 12.1797 6.2266 Q5.5156 13.875 5.5156 27.2969 Q5.5156 40.7656 12.1797 48.3828 Q18.8438 56 30.6094 56 Z"
        /><glyph unicode="d" horiz-adv-x="63.476562" d="M45.4062 46.3906 L45.4062 75.9844 L54.3906 75.9844 L54.3906 0 L45.4062 0 L45.4062 8.2031 Q42.5781 3.3281 38.2578 0.9531 Q33.9375 -1.4219 27.875 -1.4219 Q17.9688 -1.4219 11.7422 6.4922 Q5.5156 14.4062 5.5156 27.2969 Q5.5156 40.1875 11.7422 48.0938 Q17.9688 56 27.875 56 Q33.9375 56 38.2578 53.6328 Q42.5781 51.2656 45.4062 46.3906 ZM14.7969 27.2969 Q14.7969 17.3906 18.875 11.75 Q22.9531 6.1094 30.0781 6.1094 Q37.2031 6.1094 41.3047 11.75 Q45.4062 17.3906 45.4062 27.2969 Q45.4062 37.2031 41.3047 42.8438 Q37.2031 48.4844 30.0781 48.4844 Q22.9531 48.4844 18.875 42.8438 Q14.7969 37.2031 14.7969 27.2969 Z"
        /><glyph unicode="r" horiz-adv-x="41.11328" d="M41.1094 46.2969 Q39.5938 47.1719 37.8125 47.5859 Q36.0312 48 33.8906 48 Q26.2656 48 22.1875 43.0469 Q18.1094 38.0938 18.1094 28.8125 L18.1094 0 L9.0781 0 L9.0781 54.6875 L18.1094 54.6875 L18.1094 46.1875 Q20.9531 51.1719 25.4922 53.5859 Q30.0312 56 36.5312 56 Q37.4531 56 38.5781 55.8828 Q39.7031 55.7656 41.0625 55.5156 L41.1094 46.2969 Z"
        /><glyph unicode="p" horiz-adv-x="63.476562" d="M18.1094 8.2031 L18.1094 -20.7969 L9.0781 -20.7969 L9.0781 54.6875 L18.1094 54.6875 L18.1094 46.3906 Q20.9531 51.2656 25.2734 53.6328 Q29.5938 56 35.5938 56 Q45.5625 56 51.7891 48.0938 Q58.0156 40.1875 58.0156 27.2969 Q58.0156 14.4062 51.7891 6.4922 Q45.5625 -1.4219 35.5938 -1.4219 Q29.5938 -1.4219 25.2734 0.9531 Q20.9531 3.3281 18.1094 8.2031 ZM48.6875 27.2969 Q48.6875 37.2031 44.6094 42.8438 Q40.5312 48.4844 33.4062 48.4844 Q26.2656 48.4844 22.1875 42.8438 Q18.1094 37.2031 18.1094 27.2969 Q18.1094 17.3906 22.1875 11.75 Q26.2656 6.1094 33.4062 6.1094 Q40.5312 6.1094 44.6094 11.75 Q48.6875 17.3906 48.6875 27.2969 Z"
      /></font
    ></defs
    ><g style="fill:white; stroke:white;"
    ><rect x="0" y="0" width="378" style="clip-path:url(#clipPath1); stroke:none;" height="204"
    /></g
    ><g style="fill:white; text-rendering:optimizeSpeed; color-rendering:optimizeSpeed; image-rendering:optimizeSpeed; shape-rendering:crispEdges; stroke:white; color-interpolation:sRGB;"
    ><rect x="0" width="378" height="204" y="0" style="stroke:none;"
    /></g
    ><g transform="translate(189,10.2)" style="font-size:18.6667px; text-rendering:geometricPrecision; color-rendering:optimizeQuality; image-rendering:optimizeQuality; font-family:'SansSerif'; color-interpolation:linearRGB;"
    ><text x="-192" xml:space="preserve" y="6.5" style="stroke:none;"
      >Pl: 57 ms, Ax: 30 ms, Se: 9 ms, Si: 10 ms</text
    ></g
    ><g style="fill:white; text-rendering:optimizeSpeed; color-rendering:optimizeSpeed; image-rendering:optimizeSpeed; shape-rendering:crispEdges; stroke:white; color-interpolation:sRGB;"
    ><path style="stroke:none;" d="M49 186 L342 186 L342 44 L49 44 Z"
    /></g
    ><g style="stroke-linecap:butt; fill-opacity:0.302; fill:rgb(38,38,38); text-rendering:geometricPrecision; image-rendering:optimizeQuality; color-rendering:optimizeQuality; stroke-linejoin:round; stroke:rgb(38,38,38); color-interpolation:linearRGB; stroke-width:0.6667; stroke-opacity:0.302;"
    ><line y2="44" style="fill:none;" x1="49" x2="49" y1="186"
      /><line y2="44" style="fill:none;" x1="107.6" x2="107.6" y1="186"
      /><line y2="44" style="fill:none;" x1="166.2" x2="166.2" y1="186"
      /><line y2="44" style="fill:none;" x1="224.8" x2="224.8" y1="186"
      /><line y2="44" style="fill:none;" x1="283.4" x2="283.4" y1="186"
      /><line y2="44" style="fill:none;" x1="342" x2="342" y1="186"
      /><line y2="186" style="fill:none;" x1="342" x2="49" y1="186"
      /><line y2="150.5" style="fill:none;" x1="342" x2="49" y1="150.5"
      /><line y2="115" style="fill:none;" x1="342" x2="49" y1="115"
      /><line y2="79.5" style="fill:none;" x1="342" x2="49" y1="79.5"
      /><line y2="44" style="fill:none;" x1="342" x2="49" y1="44"
      /><line x1="49" x2="342" y1="186" style="stroke-linecap:square; fill-opacity:1; fill:none; stroke-opacity:1;" y2="186"
      /><line x1="49" x2="49" y1="186" style="stroke-linecap:square; fill-opacity:1; fill:none; stroke-opacity:1;" y2="183.07"
      /><line x1="107.6" x2="107.6" y1="186" style="stroke-linecap:square; fill-opacity:1; fill:none; stroke-opacity:1;" y2="183.07"
      /><line x1="166.2" x2="166.2" y1="186" style="stroke-linecap:square; fill-opacity:1; fill:none; stroke-opacity:1;" y2="183.07"
      /><line x1="224.8" x2="224.8" y1="186" style="stroke-linecap:square; fill-opacity:1; fill:none; stroke-opacity:1;" y2="183.07"
      /><line x1="283.4" x2="283.4" y1="186" style="stroke-linecap:square; fill-opacity:1; fill:none; stroke-opacity:1;" y2="183.07"
      /><line x1="342" x2="342" y1="186" style="stroke-linecap:square; fill-opacity:1; fill:none; stroke-opacity:1;" y2="183.07"
    /></g
    ><g transform="translate(49,191.3333)" style="font-size:13.3333px; fill:rgb(38,38,38); text-rendering:geometricPrecision; image-rendering:optimizeQuality; color-rendering:optimizeQuality; font-family:'SansSerif'; stroke:rgb(38,38,38); color-interpolation:linearRGB;"
    ><text x="-4.5" xml:space="preserve" y="13" style="stroke:none;"
      >0</text
    ></g
    ><g transform="translate(107.6,191.3333)" style="font-size:13.3333px; fill:rgb(38,38,38); text-rendering:geometricPrecision; image-rendering:optimizeQuality; color-rendering:optimizeQuality; font-family:'SansSerif'; stroke:rgb(38,38,38); color-interpolation:linearRGB;"
    ><text x="-8.5" xml:space="preserve" y="13" style="stroke:none;"
      >20</text
    ></g
    ><g transform="translate(166.2,191.3333)" style="font-size:13.3333px; fill:rgb(38,38,38); text-rendering:geometricPrecision; image-rendering:optimizeQuality; color-rendering:optimizeQuality; font-family:'SansSerif'; stroke:rgb(38,38,38); color-interpolation:linearRGB;"
    ><text x="-8.5" xml:space="preserve" y="13" style="stroke:none;"
      >40</text
    ></g
    ><g transform="translate(224.8,191.3333)" style="font-size:13.3333px; fill:rgb(38,38,38); text-rendering:geometricPrecision; image-rendering:optimizeQuality; color-rendering:optimizeQuality; font-family:'SansSerif'; stroke:rgb(38,38,38); color-interpolation:linearRGB;"
    ><text x="-8.5" xml:space="preserve" y="13" style="stroke:none;"
      >60</text
    ></g
    ><g transform="translate(283.4,191.3333)" style="font-size:13.3333px; fill:rgb(38,38,38); text-rendering:geometricPrecision; image-rendering:optimizeQuality; color-rendering:optimizeQuality; font-family:'SansSerif'; stroke:rgb(38,38,38); color-interpolation:linearRGB;"
    ><text x="-8.5" xml:space="preserve" y="13" style="stroke:none;"
      >80</text
    ></g
    ><g transform="translate(342,191.3333)" style="font-size:13.3333px; fill:rgb(38,38,38); text-rendering:geometricPrecision; image-rendering:optimizeQuality; color-rendering:optimizeQuality; font-family:'SansSerif'; stroke:rgb(38,38,38); color-interpolation:linearRGB;"
    ><text x="-13" xml:space="preserve" y="13" style="stroke:none;"
      >100</text
    ></g
    ><g style="fill:rgb(38,38,38); text-rendering:geometricPrecision; image-rendering:optimizeQuality; color-rendering:optimizeQuality; stroke-linejoin:round; stroke:rgb(38,38,38); color-interpolation:linearRGB; stroke-width:0.6667;"
    ><line y2="44" style="fill:none;" x1="49" x2="49" y1="186"
      /><line y2="186" style="fill:none;" x1="49" x2="51.93" y1="186"
      /><line y2="150.5" style="fill:none;" x1="49" x2="51.93" y1="150.5"
      /><line y2="115" style="fill:none;" x1="49" x2="51.93" y1="115"
      /><line y2="79.5" style="fill:none;" x1="49" x2="51.93" y1="79.5"
      /><line y2="44" style="fill:none;" x1="49" x2="51.93" y1="44"
    /></g
    ><g transform="translate(43.6667,186)" style="font-size:13.3333px; fill:rgb(38,38,38); text-rendering:geometricPrecision; image-rendering:optimizeQuality; color-rendering:optimizeQuality; font-family:'SansSerif'; stroke:rgb(38,38,38); color-interpolation:linearRGB;"
    ><text x="-22" xml:space="preserve" y="4.5" style="stroke:none;"
      >-40</text
    ></g
    ><g transform="translate(43.6667,150.5)" style="font-size:13.3333px; fill:rgb(38,38,38); text-rendering:geometricPrecision; image-rendering:optimizeQuality; color-rendering:optimizeQuality; font-family:'SansSerif'; stroke:rgb(38,38,38); color-interpolation:linearRGB;"
    ><text x="-22" xml:space="preserve" y="4.5" style="stroke:none;"
      >-20</text
    ></g
    ><g transform="translate(43.6667,115)" style="font-size:13.3333px; fill:rgb(38,38,38); text-rendering:geometricPrecision; image-rendering:optimizeQuality; color-rendering:optimizeQuality; font-family:'SansSerif'; stroke:rgb(38,38,38); color-interpolation:linearRGB;"
    ><text x="-9" xml:space="preserve" y="4.5" style="stroke:none;"
      >0</text
    ></g
    ><g transform="translate(43.6667,79.5)" style="font-size:13.3333px; fill:rgb(38,38,38); text-rendering:geometricPrecision; image-rendering:optimizeQuality; color-rendering:optimizeQuality; font-family:'SansSerif'; stroke:rgb(38,38,38); color-interpolation:linearRGB;"
    ><text x="-17" xml:space="preserve" y="4.5" style="stroke:none;"
      >20</text
    ></g
    ><g transform="translate(43.6667,44)" style="font-size:13.3333px; fill:rgb(38,38,38); text-rendering:geometricPrecision; image-rendering:optimizeQuality; color-rendering:optimizeQuality; font-family:'SansSerif'; stroke:rgb(38,38,38); color-interpolation:linearRGB;"
    ><text x="-17" xml:space="preserve" y="4.5" style="stroke:none;"
      >40</text
    ></g
    ><g style="stroke-linecap:butt; fill:rgb(0,114,189); text-rendering:geometricPrecision; image-rendering:optimizeQuality; color-rendering:optimizeQuality; stroke-linejoin:round; stroke:rgb(0,114,189); color-interpolation:linearRGB; stroke-width:2.6667;"
    ><path d="M48.9651 112.7501 L50.1445 112.7036 L55.8672 112.5344 L61.5898 112.5095 L67.3125 112.6956 L73.0352 113.115 L78.7578 113.7335 L84.4805 114.4636 L90.2031 115.1831 L95.9258 115.7675 L101.6484 116.1271 L107.3711 116.239 L113.0938 116.1644 L118.8164 116.0408 L124.5391 116.0464 L130.2617 116.3392 L135.9844 116.9819 L141.707 117.873 L147.4297 118.7076 L153.1523 118.9914 L158.875 118.1192 L164.5977 115.5099 L170.3203 110.7713 L176.043 103.8478 L181.7656 95.102 L187.4883 85.2971 L193.2109 75.4742 L198.9336 66.7538 L204.6562 60.1186 L210.3789 56.2396 L216.1016 55.3949 L221.8242 57.495 L227.5469 62.1925 L233.2695 69.0275 L238.9922 77.5525 L244.7148 87.3959 L250.4375 98.2526 L256.1602 109.8207 L261.8828 121.7248 L267.6055 133.4687 L273.3281 144.4451 L279.0508 154.0048 L284.7734 161.5621 L290.4961 166.7023 L296.2188 169.2555 L301.9414 169.3165 L307.6641 167.2096 L313.3867 163.4138 L319.1094 158.4706 L324.832 152.8996 L330.5547 147.1381 L336.2773 141.5111 L342 136.2292 L342.0349 136.1998" style="fill:none; fill-rule:evenodd;"
    /></g
    ><g style="stroke-linecap:butt; fill:rgb(217,83,25); text-rendering:geometricPrecision; image-rendering:optimizeQuality; color-rendering:optimizeQuality; stroke-linejoin:bevel; stroke-dasharray:8,8; stroke:rgb(217,83,25); color-interpolation:linearRGB; stroke-width:2.6667; stroke-miterlimit:1;"
    ><path d="M50.1445 115 L55.8672 115 L61.5898 115 L67.3125 115 L73.0352 115 L78.7578 115 L84.4805 115 L90.2031 115 L95.9258 115 L101.6484 115 L107.3711 115 L113.0938 115 L118.8164 115 L124.5391 115 L130.2617 115 L135.9844 115 L141.707 115 L147.4297 114.9912 L153.1523 114.8387 L158.875 114.0922 L164.5977 112.0979 L170.3203 108.3025 L176.043 102.4905 L181.7656 94.8742 L187.4883 86.0694 L193.2109 76.9536 L198.9336 68.5165 L204.6562 61.691 L210.3789 57.2349 L216.1016 55.6159 L221.8242 57.0339 L227.5469 61.3962 L233.2695 68.3868 L238.9922 77.4987 L244.7148 88.159 L250.4375 99.7468 L256.1602 111.6589 L261.8828 123.3488 L267.6055 134.3404 L273.3281 144.2406 L279.0508 152.7356 L284.7734 159.5837 L290.4961 164.6086 L296.2188 167.6941 L301.9414 168.7795 L307.6641 167.8601 L313.3867 164.99 L319.1094 160.2823 L324.832 153.9142 L330.5547 146.122" style="fill:none; fill-rule:evenodd;"
      /><line x1="216.1016" x2="216.1016" y1="186" style="fill:none; stroke:rgb(0,114,189);" y2="44"
      /><line y2="44" style="fill:none;" x1="216.1016" x2="216.1016" y1="186"
    /></g
    ><g style="fill:white; text-rendering:optimizeSpeed; color-rendering:optimizeSpeed; image-rendering:optimizeSpeed; shape-rendering:crispEdges; stroke:white; color-interpolation:sRGB;"
    ><path style="stroke:none;" d="M329 92 L329 57 L246 57 L246 92 Z"
    /></g
    ><g transform="translate(293,66.6377)" style="text-rendering:geometricPrecision; font-family:'SansSerif'; color-interpolation:linearRGB; color-rendering:optimizeQuality; image-rendering:optimizeQuality;"
    ><text x="0" xml:space="preserve" y="4.5" style="stroke:none;"
      >obs.</text
    ></g
    ><g style="stroke-linecap:butt; fill:rgb(0,114,189); text-rendering:geometricPrecision; image-rendering:optimizeQuality; color-rendering:optimizeQuality; stroke-linejoin:round; stroke:rgb(0,114,189); color-interpolation:linearRGB; stroke-width:2.6667;"
    ><line y2="66.6377" style="fill:none;" x1="250" x2="290" y1="66.6377"
    /></g
    ><g transform="translate(293,82.3623)" style="text-rendering:geometricPrecision; font-family:'SansSerif'; color-interpolation:linearRGB; color-rendering:optimizeQuality; image-rendering:optimizeQuality;"
    ><text x="0" xml:space="preserve" y="4.5" style="stroke:none;"
      >pred.</text
    ></g
    ><g style="stroke-linecap:butt; fill:rgb(217,83,25); text-rendering:geometricPrecision; image-rendering:optimizeQuality; color-rendering:optimizeQuality; stroke-linejoin:bevel; stroke-dasharray:8,8; stroke:rgb(217,83,25); color-interpolation:linearRGB; stroke-width:2.6667; stroke-miterlimit:1;"
    ><line y2="82.3623" style="fill:none;" x1="250" x2="290" y1="82.3623"
    /></g
    ><g style="stroke-linecap:butt; fill:rgb(38,38,38); text-rendering:geometricPrecision; color-rendering:optimizeQuality; image-rendering:optimizeQuality; stroke:rgb(38,38,38); color-interpolation:linearRGB; stroke-width:0.6667;"
    ><path d="M246 92 L246 57 L329 57 L329 92 Z" style="fill:none; fill-rule:evenodd;"
    /></g
  ></g
></svg
>
