<?xml version="1.0"?>
<!DOCTYPE svg PUBLIC '-//W3C//DTD SVG 1.0//EN'
          'http://www.w3.org/TR/2001/REC-SVG-20010904/DTD/svg10.dtd'>
<svg xmlns:xlink="http://www.w3.org/1999/xlink" style="fill-opacity:1; color-rendering:auto; color-interpolation:auto; text-rendering:auto; stroke:black; stroke-linecap:square; stroke-miterlimit:10; shape-rendering:auto; stroke-opacity:1; fill:black; stroke-dasharray:none; font-weight:normal; stroke-width:1; font-family:'Dialog'; font-style:normal; stroke-linejoin:miter; font-size:12px; stroke-dashoffset:0; image-rendering:auto;" width="312" height="277" xmlns="http://www.w3.org/2000/svg"
><!--Generated by the Batik Graphics2D SVG Generator--><defs id="genericDefs"
  /><g
  ><defs id="defs1"
    ><clipPath clipPathUnits="userSpaceOnUse" id="clipPath1"
      ><path d="M0 0 L312 0 L312 277 L0 277 L0 0 Z"
      /></clipPath
      ><font horiz-adv-x="27.797455" id="font1"
      ><font-face ascent="75.543076" descent="19.148254" units-per-em="100" style="font-style:normal; font-family:SansSerif; font-weight:normal;"
        /><missing-glyph horiz-adv-x="27.797455" d=""
        /><glyph unicode="0" horiz-adv-x="55.59491" d="M27.5 70.9062 C34.2031 70.9062 40.0938 68.0938 43.7969 63.0938 C48.5 56.7031 50.7031 47.5 50.7031 33.7031 C50.7031 10.4062 42.5 -2.2969 27.5 -2.2969 C12.2969 -2.2969 4.2969 10.4062 4.2969 34.2969 C4.2969 47.4062 6.5938 56.9062 11.2031 63.0938 C14.9062 68 20.9062 70.9062 27.5 70.9062 ZM27.5 63.0938 C18 63.0938 13.2969 53.5938 13.2969 34.2031 C13.2969 14.7969 18 5 27.2969 5 C37.0938 5 41.7031 14.4062 41.7031 34.5 C41.7031 53.5 37 63.0938 27.5 63.0938 Z"
        /><glyph unicode="i" horiz-adv-x="22.197968" d="M15 52.4062 L15 0 L6.7031 0 L6.7031 52.4062 ZM15 72.9062 L15 62.4062 L6.5938 62.4062 L6.5938 72.9062 Z"
        /><glyph unicode="2" horiz-adv-x="55.59491" d="M50.5938 8.7031 L50.5938 0 L3.4062 0 C4.2031 15.5938 8.5 22.2969 23.2969 30.7031 L32.5 35.9062 C38.7969 39.5 42.0938 44.2969 42.0938 49.9062 C42.0938 57.5 36.0938 63.2031 28.0938 63.2031 C22.7969 63.2031 18.2031 60.5938 15.9062 56.2969 C14.7031 54 14.0938 51.0938 13.7969 46.2969 L5 46.2969 C5.2031 53.5 6.2969 57.9062 8.7969 61.7031 C12.7031 67.7031 19.4062 70.9062 28.4062 70.9062 C35.0938 70.9062 40.2969 69.0938 44.5 65.2969 C48.7031 61.5 51.0938 56 51.0938 50.0938 C51.0938 41.4062 46 34.0938 36.0938 28.7031 L26.0938 23.2969 C17.4062 18.2031 14.2031 14.5 13.2969 8.7031 Z"
        /><glyph unicode="1" horiz-adv-x="55.59491" d="M25.9062 50.5 L10.2031 50.5 L10.2031 56.7969 C23.7969 58.5 25.7969 60 28.9062 70.9062 L34.7031 70.9062 L34.7031 0 L25.9062 0 Z"
        /><glyph unicode="e" horiz-adv-x="55.59491" d="M51.2969 23.4062 L12.7031 23.4062 C12.7969 18.2031 13.5 15.2031 15.5 12.2031 C18.2969 7.7969 22.7969 5.4062 28.0938 5.4062 C34.7969 5.4062 39.5 9 41.7969 15.9062 L50.2031 15.9062 C48.0938 4.5 39.7969 -2.2969 27.7969 -2.2969 C13.0938 -2.2969 4 8.2969 4 25.5 C4 42.7031 13.4062 53.9062 28 53.9062 C37.7969 53.9062 45.7969 48.7031 49.2031 40.0938 C50.7031 36.2031 51.2969 31.4062 51.2969 23.4062 ZM12.9062 30.2031 L42.2969 30.2031 C42.4062 30.4062 42.4062 30.5938 42.4062 30.7969 C42.4062 39.4062 36.0938 46.2031 27.9062 46.2031 C19.5 46.2031 13.5938 39.9062 12.9062 30.2031 Z"
        /><glyph unicode="T" horiz-adv-x="61.094406" d="M35.4062 64.7031 L35.4062 0 L26.0938 0 L26.0938 64.7031 L2.0938 64.7031 L2.0938 72.9062 L59.2969 72.9062 L59.2969 64.7031 Z"
        /><glyph unicode="," horiz-adv-x="27.797455" d="M8.7031 10.4062 L19.2031 10.4062 L19.2031 -1.5938 C19.2031 -10.2031 15.7031 -14.7031 8.7031 -14.7031 L8.7031 -10.9062 C13.4062 -10.7031 14.7031 -8.7031 14.7031 -1.7969 L14.7031 0 L8.7031 0 Z"
        /><glyph unicode="3" horiz-adv-x="55.59491" d="M22.0938 32.5 L22.0938 40 C28.2969 40.0938 31.4062 40.5 33.7969 41.5 C37.7031 43.0938 39.5 46.0938 39.5 51.0938 C39.5 58.5938 34.7969 63.2031 27 63.2031 C21.5 63.2031 17.0938 60.7969 15.0938 56.9062 C14 54.7031 13.5938 52.2969 13.5 48 L4.7031 48 C5 63.0938 12.5938 70.9062 26.9062 70.9062 C40.4062 70.9062 48.5 63.5938 48.5 51.4062 C48.5 44.2969 45.2031 39.2969 38.5938 36.7031 C47.0938 33.7969 50.5938 28.7969 50.5938 19.7969 C50.5938 6.4062 41.2031 -2.2969 26.5938 -2.2969 C16.9062 -2.2969 9.9062 1.2031 6.2969 8 C4.5938 11.2031 3.5938 14.9062 3.2031 20.5938 L12 20.5938 C12.5938 10.2969 17.2969 5.5 26.9062 5.5 C36.0938 5.5 41.5938 10.7969 41.5938 19.7031 C41.5938 28.2031 36.5938 32.5938 26.9062 32.5938 L23.2031 32.5 Z"
        /><glyph unicode="x" horiz-adv-x="49.995422" d="M29.2031 27.0938 L47.2969 0 L37.5938 0 L24.5 20.0938 L11.2031 0 L1.7031 0 L20.2031 26.7031 L2.7031 52.4062 L12.2031 52.4062 L24.7969 33.4062 L37.4062 52.4062 L46.7969 52.4062 Z"
        /><glyph unicode="A" horiz-adv-x="66.69389" d="M47.4062 21.9062 L19.2969 21.9062 L11.5938 0 L1.7031 0 L27.7031 72.9062 L39.7031 72.9062 L65.2969 0 L54.9062 0 ZM44.7969 29.7031 L33.5938 62.9062 L21.5938 29.7031 Z"
        /><glyph unicode="-" horiz-adv-x="33.29695" d="M28.4062 31.2031 L28.4062 24 L4.5938 24 L4.5938 31.2031 Z"
        /><glyph unicode="s" horiz-adv-x="49.995422" d="M43.7969 37.7969 L35 37.7969 C34.7969 43.2969 31.2031 46.2031 24.5 46.2031 C17.7031 46.2031 13.4062 43.0938 13.4062 38.2969 C13.4062 34.5938 16.2969 32.4062 23.0938 30.7969 L31.0938 28.9062 C41.5 26.4062 45.9062 22.0938 45.9062 14.2969 C45.9062 4.2031 37.5 -2.2969 24.2969 -2.2969 C10.5938 -2.2969 3.7969 3.5 3.4062 15.5938 L12.2031 15.5938 C12.7031 11.9062 13.2969 10.4062 14.5938 8.9062 C16.7031 6.7031 20.5 5.4062 25 5.4062 C32.2969 5.4062 37.2031 8.7031 37.2031 13.5938 C37.2031 17.4062 34.9062 19.5 29.0938 20.9062 L21.2969 22.7969 C8.9062 25.7969 4.7031 29.7031 4.7031 37.9062 C4.7031 47.5938 12.5938 53.9062 24.7969 53.9062 C36.9062 53.9062 43.7031 48.0938 43.7969 37.7969 Z"
        /><glyph unicode="m" horiz-adv-x="83.29237" d="M7 52.4062 L14.7031 52.4062 L14.7031 45 C19.2031 51.2969 23.7969 53.9062 30.7969 53.9062 C37.5938 53.9062 41.7969 51.5 44.9062 45.9062 C49.7969 51.7969 54 53.9062 61 53.9062 C70.7969 53.9062 76.2031 48.7031 76.2031 39.2969 L76.2031 0 L67.7969 0 L67.7969 36.0938 C67.7969 42.7031 64.2031 46.5938 58.0938 46.5938 C51.2969 46.5938 45.7969 40.5 45.7969 32.9062 L45.7969 0 L37.4062 0 L37.4062 36.0938 C37.4062 42.7969 33.9062 46.5938 27.7031 46.5938 C20.9062 46.5938 15.4062 40.5 15.4062 32.9062 L15.4062 0 L7 0 Z"
        /><glyph unicode="6" horiz-adv-x="55.59491" d="M49.7969 52.4062 L41 52.4062 C39.5938 59.2031 35.2969 63.0938 29.0938 63.0938 C19 63.0938 13.4062 53.5 13.2969 36.2031 C17.0938 41.4062 22.5938 44.0938 29.5938 44.0938 C42.2969 44.0938 51.2969 34.7969 51.2969 21.5938 C51.2969 7.7031 41.5938 -2.2969 28.0938 -2.2969 C20.2969 -2.2969 14.0938 0.7969 10.2969 6.5 C6.0938 12.7969 4.2969 20.4062 4.2969 32.2969 C4.2969 45.2031 6.2969 53.9062 10.7031 60.7969 C14.9062 67.0938 21.9062 70.9062 29.7031 70.9062 C40.5 70.9062 48.0938 64 49.7969 52.4062 ZM28.5 36.2969 C19.7969 36.2969 13.7969 30.2031 13.7969 21.4062 C13.7969 12.2969 20 5.5 28.2031 5.5 C36.2969 5.5 42.2969 12 42.2969 20.9062 C42.2969 30.4062 37 36.2969 28.5 36.2969 Z"
        /><glyph unicode=":" horiz-adv-x="27.797455" d="M21.4062 10.4062 L21.4062 0 L11 0 L11 10.4062 ZM21.4062 52.4062 L21.4062 42 L11 42 L11 52.4062 Z"
        /><glyph unicode="L" horiz-adv-x="55.59491" d="M17.2969 72.9062 L17.2969 8.2031 L53.2969 8.2031 L53.2969 0 L8 0 L8 72.9062 Z"
        /><glyph unicode="P" horiz-adv-x="66.69389" d="M18.4062 30.9062 L18.4062 0 L9.0938 0 L9.0938 72.9062 L39.2031 72.9062 C53.5938 72.9062 61.7031 65.2031 61.7031 51.5 C61.7031 44.7969 59.7969 40.0938 55.4062 36.0938 C51.5 32.5938 47 30.9062 41.2969 30.9062 ZM18.4062 39.0938 L37.7969 39.0938 C46.7031 39.0938 52 43.9062 52 51.9062 C52 59.9062 46.7031 64.7031 37.7969 64.7031 L18.4062 64.7031 Z"
        /><glyph unicode=" " horiz-adv-x="27.797455" d=""
        /><glyph unicode=")" horiz-adv-x="33.29695" d="M9.2969 -21.2031 L3.7969 -21.2031 C12.5938 -7 17.5 9.9062 17.5 25.7969 C17.5 41.7969 12.5938 58.5938 3.7969 72.9062 L9.2969 72.9062 C19.2969 59.7969 25.5938 41.5938 25.5938 25.7969 C25.5938 10.0938 19.2969 -8.0938 9.2969 -21.2031 Z"
        /><glyph unicode="5" horiz-adv-x="55.59491" d="M47.5938 70.9062 L47.5938 62.2031 L18.0938 62.2031 L15.2969 42.4062 C19.4062 45.4062 23.4062 46.7031 28.4062 46.7031 C42 46.7031 51.2969 37.0938 51.2969 23.0938 C51.2969 8.0938 41.2969 -2.2969 27 -2.2969 C19 -2.2969 11.7969 0.7969 7.7969 6.2031 C5.7031 8.7969 4.7031 11.5938 3.5 17.4062 L12.2969 17.4062 C14.4062 9.4062 19.0938 5.5 26.7969 5.5 C36.4062 5.5 42.2969 11.7031 42.2969 21.9062 C42.2969 32.4062 36.2969 38.9062 26.7969 38.9062 C21.2969 38.9062 17.9062 37.2031 13.7969 32.2969 L5.7031 32.2969 L11 70.9062 Z"
        /><glyph unicode="9" horiz-adv-x="55.59491" d="M5.2969 16.2031 L14.0938 16.2031 C15.5 9.4062 19.7969 5.5 26 5.5 C36.0938 5.5 41.7031 15.0938 41.7969 32.4062 C37.2031 26.9062 32.2969 24.5 25.5938 24.5 C12.7969 24.5 3.7969 33.7969 3.7969 47 C3.7969 60.9062 13.5 70.9062 27 70.9062 C34.7969 70.9062 41 67.7969 44.9062 62.0938 C49.0938 55.7969 50.9062 48.2031 50.9062 36.2969 C50.9062 23.4062 48.9062 14.7031 44.4062 7.7969 C40.2969 1.5 33.2031 -2.2969 25.4062 -2.2969 C14.5938 -2.2969 7 4.5938 5.2969 16.2031 ZM26.9062 63.2031 C18.7969 63.2031 12.7969 56.7031 12.7969 47.7031 C12.7969 38.2031 18.0938 32.2969 26.5938 32.2969 C35.2031 32.2969 41.2969 38.5 41.2969 47.2031 C41.2969 56.4062 35.0938 63.2031 26.9062 63.2031 Z"
        /><glyph unicode="7" horiz-adv-x="55.59491" d="M52 70.9062 L52 63.5 C36 42.2031 27.0938 22.7031 23.2031 0 L13.7969 0 C19.0938 23.2969 26 38.0938 42.9062 62.2031 L4.5938 62.2031 L4.5938 70.9062 Z"
        /><glyph unicode="4" horiz-adv-x="55.59491" d="M32.7031 17 L2.7969 17 L2.7969 26.2969 L35 70.9062 L41.5 70.9062 L41.5 24.9062 L52 24.9062 L52 17 L41.5 17 L41.5 0 L32.7031 0 ZM32.7031 24.9062 L32.7031 55.9062 L10.5 24.9062 Z"
        /><glyph unicode="#" horiz-adv-x="55.59491" d="M48.5 69.7031 L44.9062 50.0938 L54.2031 50.0938 L54.2031 43.2969 L43.5938 43.2969 L40.5 25.9062 L51 25.9062 L51 19.0938 L39.2969 19.0938 L35.4062 -2 L27.7969 -2 L31.5938 19.0938 L19.2031 19.0938 L15.2969 -2 L7.7031 -2 L11.5 19.0938 L1.4062 19.0938 L1.4062 25.9062 L12.7969 25.9062 L15.9062 43.2969 L5.0938 43.2969 L5.0938 50.0938 L17.2031 50.0938 L20.7969 69.7031 L28.4062 69.7031 L24.7969 50.0938 L37.2969 50.0938 L40.7969 69.7031 ZM36 43.2969 L23.5938 43.2969 L20.4062 25.9062 L32.9062 25.9062 Z"
        /><glyph unicode="(" horiz-adv-x="33.29695" d="M23.5938 72.9062 L29.0938 72.9062 C20.2969 58.7031 15.4062 41.7969 15.4062 25.9062 C15.4062 9.9062 20.2969 -6.9062 29.0938 -21.2031 L23.5938 -21.2031 C13.5938 -8.0938 7.2969 10.0938 7.2969 25.9062 C7.2969 41.5938 13.5938 59.7969 23.5938 72.9062 Z"
        /><glyph unicode="8" horiz-adv-x="55.59491" d="M39.0938 37.2969 C47.2969 33.4062 51.2969 27.5 51.2969 19.5938 C51.2969 6.7031 41.5 -2.2969 27.5 -2.2969 C13.5 -2.2969 3.7031 6.7031 3.7031 19.7031 C3.7031 27.5 7.7031 33.4062 15.7969 37.2969 C8.5938 41.7969 6.2031 45.4062 6.2031 52 C6.2031 63.0938 15 70.9062 27.5 70.9062 C40.0938 70.9062 48.7969 63.0938 48.7969 52 C48.7969 45.2969 46.4062 41.7031 39.0938 37.2969 ZM27.5 63.0938 C20.0938 63.0938 15.2031 58.7031 15.2031 51.9062 C15.2031 45.2031 20.0938 40.7969 27.5 40.7969 C34.9062 40.7969 39.7969 45.2031 39.7969 51.7969 C39.7969 58.7031 35 63.0938 27.5 63.0938 ZM27.5 33.4062 C18.7031 33.4062 12.7031 27.7969 12.7031 19.5 C12.7031 11.2031 18.7031 5.5 27.2969 5.5 C36.2969 5.5 42.2969 11.0938 42.2969 19.5 C42.2969 27.7969 36.2969 33.4062 27.5 33.4062 Z"
        /><glyph unicode="." horiz-adv-x="27.797455" d="M19.0938 10.4062 L19.0938 0 L8.7031 0 L8.7031 10.4062 Z"
        /><glyph unicode="b" horiz-adv-x="55.59491" d="M5.4062 72.9062 L13.7031 72.9062 L13.7031 45.2969 C17.5938 51.2031 22.7031 53.9062 29.9062 53.9062 C43.7031 53.9062 52.2969 43.4062 52.2969 26.4062 C52.2969 9 43.2969 -2.2969 29.5 -2.2969 C22.2031 -2.2969 16.9062 0.5938 12.9062 6.7031 L12.9062 0 L5.4062 0 ZM28.2969 46.0938 C19.5 46.0938 13.7031 38.0938 13.7031 25.7969 C13.7031 13.5 19.5 5.5 28.2969 5.5 C37.4062 5.5 43.5938 13.5938 43.5938 25.5 C43.5938 38 37.5938 46.0938 28.2969 46.0938 Z"
        /><glyph unicode="o" horiz-adv-x="55.59491" d="M27.2031 53.9062 C42.2969 53.9062 51 43.5 51 25.4062 C51 8.2031 42 -2.2969 27.2969 -2.2969 C12.4062 -2.2969 3.5938 8.2031 3.5938 25.7969 C3.5938 43.4062 12.5 53.9062 27.2031 53.9062 ZM27.2969 46.2031 C18 46.2031 12.2969 38.4062 12.2969 25.7969 C12.2969 13.0938 18 5.4062 27.2969 5.4062 C36.5 5.4062 42.2969 13.2031 42.2969 25.5 C42.2969 38.5 36.7031 46.2031 27.2969 46.2031 Z"
        /><glyph unicode="d" horiz-adv-x="55.59491" d="M49.5 72.9062 L49.5 0 L42.0938 0 L42.0938 6.9062 C37.5938 0.4062 32.5938 -2.2969 25.4062 -2.2969 C11.2969 -2.2969 2.5938 8.5938 2.5938 26.2969 C2.5938 43 11.5 53.9062 25.0938 53.9062 C32.0938 53.9062 37.7031 51.0938 41.2031 45.7969 L41.2031 72.9062 ZM26.5 46.0938 C17.4062 46.0938 11.2969 38 11.2969 25.7969 C11.2969 13.5938 17.4062 5.5 26.5938 5.5 C35.4062 5.5 41.2031 13.5 41.2031 25.5938 C41.2031 38.0938 35.5 46.0938 26.5 46.0938 Z"
        /><glyph unicode="r" horiz-adv-x="33.29695" d="M6.9062 52.4062 L14.5938 52.4062 L14.5938 42.9062 C19.4062 50.7031 23.5 53.9062 28.9062 53.9062 C30 53.9062 30.7031 53.7969 32.0938 53.5938 L32.0938 45.0938 C26.2969 45 23.7969 44.4062 21.2031 42.5 C17.2031 39.5938 15.2969 34.7031 15.2969 27.2031 L15.2969 0 L6.9062 0 Z"
        /><glyph unicode="p" horiz-adv-x="55.59491" d="M5.4062 -21.7969 L5.4062 52.4062 L13.0938 52.4062 L13.0938 44.5 C17 50.7031 22.7031 53.9062 29.7969 53.9062 C43.7031 53.9062 52.2969 42.9062 52.2969 25.2969 C52.2969 8.5938 43.4062 -2.2969 29.9062 -2.2969 C23.0938 -2.2969 18.2031 0.0938 13.7969 5.5 L13.7969 -21.7969 ZM28.4062 46.0938 C19.5938 46.0938 13.7969 38.0938 13.7969 25.7969 C13.7969 13.5 19.5938 5.5 28.4062 5.5 C37.5 5.5 43.5938 13.5938 43.5938 25.5 C43.5938 38 37.5938 46.0938 28.4062 46.0938 Z"
      /></font
    ></defs
    ><g style="fill:white; stroke:white;"
    ><rect x="0" y="0" width="312" style="clip-path:url(#clipPath1); stroke:none;" height="277"
    /></g
    ><g style="fill:white; text-rendering:optimizeSpeed; color-rendering:optimizeSpeed; image-rendering:optimizeSpeed; shape-rendering:crispEdges; stroke:white; color-interpolation:sRGB;"
    ><rect x="0" width="312" height="277" y="0" style="stroke:none;"
    /></g
    ><g transform="translate(156,13.85)" style="font-size:18.6667px; text-rendering:geometricPrecision; color-rendering:optimizeQuality; image-rendering:optimizeQuality; font-family:'SansSerif'; color-interpolation:linearRGB;"
    ><text x="-222" xml:space="preserve" y="5.5" style="stroke:none;"
      >(#47957) PL: 65 ms - Ax: 35 ms, Te: 12 ms, Ti: 20 ms</text
    ></g
    ><g style="fill:white; text-rendering:optimizeSpeed; color-rendering:optimizeSpeed; image-rendering:optimizeSpeed; shape-rendering:crispEdges; stroke:white; color-interpolation:sRGB;"
    ><path style="stroke:none;" d="M41 250 L282 250 L282 49 L41 49 Z"
    /></g
    ><g style="stroke-linecap:butt; fill-opacity:0.149; fill:rgb(38,38,38); text-rendering:geometricPrecision; image-rendering:optimizeQuality; color-rendering:optimizeQuality; stroke-linejoin:round; stroke:rgb(38,38,38); color-interpolation:linearRGB; stroke-width:0.6667; stroke-opacity:0.149;"
    ><line y2="49" style="fill:none;" x1="41" x2="41" y1="250"
      /><line y2="49" style="fill:none;" x1="89.2" x2="89.2" y1="250"
      /><line y2="49" style="fill:none;" x1="137.4" x2="137.4" y1="250"
      /><line y2="49" style="fill:none;" x1="185.6" x2="185.6" y1="250"
      /><line y2="49" style="fill:none;" x1="233.8" x2="233.8" y1="250"
      /><line y2="49" style="fill:none;" x1="282" x2="282" y1="250"
      /><line y2="250" style="fill:none;" x1="282" x2="41" y1="250"
      /><line y2="209.8" style="fill:none;" x1="282" x2="41" y1="209.8"
      /><line y2="169.6" style="fill:none;" x1="282" x2="41" y1="169.6"
      /><line y2="129.4" style="fill:none;" x1="282" x2="41" y1="129.4"
      /><line y2="89.2" style="fill:none;" x1="282" x2="41" y1="89.2"
      /><line y2="49" style="fill:none;" x1="282" x2="41" y1="49"
      /><line x1="41" x2="282" y1="250" style="stroke-linecap:square; fill-opacity:1; fill:none; stroke-opacity:1;" y2="250"
      /><line x1="41" x2="41" y1="250" style="stroke-linecap:square; fill-opacity:1; fill:none; stroke-opacity:1;" y2="247.59"
      /><line x1="89.2" x2="89.2" y1="250" style="stroke-linecap:square; fill-opacity:1; fill:none; stroke-opacity:1;" y2="247.59"
      /><line x1="137.4" x2="137.4" y1="250" style="stroke-linecap:square; fill-opacity:1; fill:none; stroke-opacity:1;" y2="247.59"
      /><line x1="185.6" x2="185.6" y1="250" style="stroke-linecap:square; fill-opacity:1; fill:none; stroke-opacity:1;" y2="247.59"
      /><line x1="233.8" x2="233.8" y1="250" style="stroke-linecap:square; fill-opacity:1; fill:none; stroke-opacity:1;" y2="247.59"
      /><line x1="282" x2="282" y1="250" style="stroke-linecap:square; fill-opacity:1; fill:none; stroke-opacity:1;" y2="247.59"
    /></g
    ><g transform="translate(41,255.3333)" style="font-size:13.3333px; fill:rgb(38,38,38); text-rendering:geometricPrecision; image-rendering:optimizeQuality; color-rendering:optimizeQuality; font-family:'SansSerif'; stroke:rgb(38,38,38); color-interpolation:linearRGB;"
    ><text x="-4" xml:space="preserve" y="11" style="stroke:none;"
      >0</text
    ></g
    ><g transform="translate(89.2,255.3333)" style="font-size:13.3333px; fill:rgb(38,38,38); text-rendering:geometricPrecision; image-rendering:optimizeQuality; color-rendering:optimizeQuality; font-family:'SansSerif'; stroke:rgb(38,38,38); color-interpolation:linearRGB;"
    ><text x="-7.5" xml:space="preserve" y="11" style="stroke:none;"
      >20</text
    ></g
    ><g transform="translate(137.4,255.3333)" style="font-size:13.3333px; fill:rgb(38,38,38); text-rendering:geometricPrecision; image-rendering:optimizeQuality; color-rendering:optimizeQuality; font-family:'SansSerif'; stroke:rgb(38,38,38); color-interpolation:linearRGB;"
    ><text x="-7.5" xml:space="preserve" y="11" style="stroke:none;"
      >40</text
    ></g
    ><g transform="translate(185.6,255.3333)" style="font-size:13.3333px; fill:rgb(38,38,38); text-rendering:geometricPrecision; image-rendering:optimizeQuality; color-rendering:optimizeQuality; font-family:'SansSerif'; stroke:rgb(38,38,38); color-interpolation:linearRGB;"
    ><text x="-7.5" xml:space="preserve" y="11" style="stroke:none;"
      >60</text
    ></g
    ><g transform="translate(233.8,255.3333)" style="font-size:13.3333px; fill:rgb(38,38,38); text-rendering:geometricPrecision; image-rendering:optimizeQuality; color-rendering:optimizeQuality; font-family:'SansSerif'; stroke:rgb(38,38,38); color-interpolation:linearRGB;"
    ><text x="-7.5" xml:space="preserve" y="11" style="stroke:none;"
      >80</text
    ></g
    ><g transform="translate(282,255.3333)" style="font-size:13.3333px; fill:rgb(38,38,38); text-rendering:geometricPrecision; image-rendering:optimizeQuality; color-rendering:optimizeQuality; font-family:'SansSerif'; stroke:rgb(38,38,38); color-interpolation:linearRGB;"
    ><text x="-11.5" xml:space="preserve" y="11" style="stroke:none;"
      >100</text
    ></g
    ><g style="fill:rgb(38,38,38); text-rendering:geometricPrecision; image-rendering:optimizeQuality; color-rendering:optimizeQuality; stroke-linejoin:round; stroke:rgb(38,38,38); color-interpolation:linearRGB; stroke-width:0.6667;"
    ><line y2="49" style="fill:none;" x1="41" x2="41" y1="250"
      /><line y2="250" style="fill:none;" x1="41" x2="43.41" y1="250"
      /><line y2="209.8" style="fill:none;" x1="41" x2="43.41" y1="209.8"
      /><line y2="169.6" style="fill:none;" x1="41" x2="43.41" y1="169.6"
      /><line y2="129.4" style="fill:none;" x1="41" x2="43.41" y1="129.4"
      /><line y2="89.2" style="fill:none;" x1="41" x2="43.41" y1="89.2"
      /><line y2="49" style="fill:none;" x1="41" x2="43.41" y1="49"
    /></g
    ><g transform="translate(35.6667,250)" style="font-size:13.3333px; fill:rgb(38,38,38); text-rendering:geometricPrecision; image-rendering:optimizeQuality; color-rendering:optimizeQuality; font-family:'SansSerif'; stroke:rgb(38,38,38); color-interpolation:linearRGB;"
    ><text x="-20" xml:space="preserve" y="4" style="stroke:none;"
      >-20</text
    ></g
    ><g transform="translate(35.6667,209.8)" style="font-size:13.3333px; fill:rgb(38,38,38); text-rendering:geometricPrecision; image-rendering:optimizeQuality; color-rendering:optimizeQuality; font-family:'SansSerif'; stroke:rgb(38,38,38); color-interpolation:linearRGB;"
    ><text x="-20" xml:space="preserve" y="4" style="stroke:none;"
      >-10</text
    ></g
    ><g transform="translate(35.6667,169.6)" style="font-size:13.3333px; fill:rgb(38,38,38); text-rendering:geometricPrecision; image-rendering:optimizeQuality; color-rendering:optimizeQuality; font-family:'SansSerif'; stroke:rgb(38,38,38); color-interpolation:linearRGB;"
    ><text x="-8" xml:space="preserve" y="4" style="stroke:none;"
      >0</text
    ></g
    ><g transform="translate(35.6667,129.4)" style="font-size:13.3333px; fill:rgb(38,38,38); text-rendering:geometricPrecision; image-rendering:optimizeQuality; color-rendering:optimizeQuality; font-family:'SansSerif'; stroke:rgb(38,38,38); color-interpolation:linearRGB;"
    ><text x="-15" xml:space="preserve" y="4" style="stroke:none;"
      >10</text
    ></g
    ><g transform="translate(35.6667,89.2)" style="font-size:13.3333px; fill:rgb(38,38,38); text-rendering:geometricPrecision; image-rendering:optimizeQuality; color-rendering:optimizeQuality; font-family:'SansSerif'; stroke:rgb(38,38,38); color-interpolation:linearRGB;"
    ><text x="-15" xml:space="preserve" y="4" style="stroke:none;"
      >20</text
    ></g
    ><g transform="translate(35.6667,49)" style="font-size:13.3333px; fill:rgb(38,38,38); text-rendering:geometricPrecision; image-rendering:optimizeQuality; color-rendering:optimizeQuality; font-family:'SansSerif'; stroke:rgb(38,38,38); color-interpolation:linearRGB;"
    ><text x="-15" xml:space="preserve" y="4" style="stroke:none;"
      >30</text
    ></g
    ><g style="stroke-linecap:butt; fill:rgb(0,114,189); text-rendering:geometricPrecision; image-rendering:optimizeQuality; color-rendering:optimizeQuality; stroke-linejoin:round; stroke:rgb(0,114,189); color-interpolation:linearRGB; stroke-width:2.6667;"
    ><path d="M40.9713 170.1066 L41.9414 170.399 L46.6484 171.8708 L51.3555 173.3332 L56.0625 174.7362 L60.7695 176.029 L65.4766 177.1368 L70.1836 177.9399 L74.8906 178.2732 L79.5977 177.9557 L84.3047 176.8522 L89.0117 174.9477 L93.7188 172.4061 L98.4258 169.5815 L103.1328 166.9638 L107.8398 165.0645 L112.5469 164.2724 L117.2539 164.7268 L121.9609 166.2487 L126.668 168.3558 L131.375 170.3557 L136.082 171.4899 L140.7891 171.0869 L145.4961 168.6851 L150.2031 164.1019 L154.9102 157.4439 L159.6172 149.0655 L164.3242 139.4967 L169.0312 129.3594 L173.7383 119.2877 L178.4453 109.8644 L183.1523 101.5775 L187.8594 94.7977 L192.5664 89.7728 L197.2734 86.6331 L201.9805 85.4048 L206.6875 86.0257 L211.3945 88.3626 L216.1016 92.2297 L220.8086 97.4072 L225.5156 103.6599 L230.2227 110.7546 L234.9297 118.4758 L239.6367 126.6386 L244.3438 135.0979 L249.0508 143.754 L253.7578 152.5541 L258.4648 161.4889 L263.1719 170.5838 L267.8789 179.886 L272.5859 189.4482 L277.293 199.3127 L282 209.4958 L282.0287 209.5598" style="fill:none; fill-rule:evenodd;"
    /></g
    ><g style="stroke-linecap:butt; fill:rgb(217,83,25); text-rendering:geometricPrecision; image-rendering:optimizeQuality; color-rendering:optimizeQuality; stroke-linejoin:bevel; stroke-dasharray:8,8; stroke:rgb(217,83,25); color-interpolation:linearRGB; stroke-width:2.6667; stroke-miterlimit:1;"
    ><path d="M41.9414 169.6 L46.6484 169.6 L51.3555 169.6 L56.0625 169.6 L60.7695 169.6 L65.4766 169.6 L70.1836 169.6 L74.8906 169.6 L79.5977 169.6 L84.3047 169.6 L89.0117 169.6 L93.7188 169.6 L98.4258 169.6 L103.1328 169.6 L107.8398 169.6 L112.5469 169.6 L117.2539 169.6 L121.9609 169.6 L126.668 169.6 L131.375 169.5996 L136.082 169.5581 L140.7891 169.1618 L145.4961 167.7153 L150.2031 164.4326 L154.9102 158.7928 L159.6172 150.7534 L164.3242 140.7932 L169.0312 129.7894 L173.7383 118.7747 L178.4453 108.7443 L183.1523 100.4618 L187.8594 94.3664 L192.5664 90.56 L197.2734 88.8696 L201.9805 88.9501 L206.6875 90.3997 L211.3945 92.8638 L216.1016 96.1019 L220.8086 100.0106 L225.5156 104.6049 L230.2227 109.9745 L234.9297 116.2255 L239.6367 123.4297 L244.3438 131.589 L249.0508 140.6236 L253.7578 150.3795 L258.4648 160.651 L263.1719 171.2102 L267.8789 181.8355 L272.5859 192.3334 L277.293 202.5477 L282 212.3595 L282.0287 212.4164" style="fill:none; fill-rule:evenodd;"
    /></g
    ><g style="fill:white; text-rendering:optimizeSpeed; color-rendering:optimizeSpeed; image-rendering:optimizeSpeed; shape-rendering:crispEdges; stroke:white; color-interpolation:sRGB;"
    ><path style="stroke:none;" d="M269 93 L269 62 L190 62 L190 93 Z"
    /></g
    ><g transform="translate(237,70.6393)" style="text-rendering:geometricPrecision; font-family:'SansSerif'; color-interpolation:linearRGB; color-rendering:optimizeQuality; image-rendering:optimizeQuality;"
    ><text x="0" xml:space="preserve" y="3.5" style="stroke:none;"
      >obs.</text
    ></g
    ><g style="stroke-linecap:butt; fill:rgb(0,114,189); text-rendering:geometricPrecision; image-rendering:optimizeQuality; color-rendering:optimizeQuality; stroke-linejoin:round; stroke:rgb(0,114,189); color-interpolation:linearRGB; stroke-width:2.6667;"
    ><line y2="70.6393" style="fill:none;" x1="194" x2="234" y1="70.6393"
    /></g
    ><g transform="translate(237,84.3607)" style="text-rendering:geometricPrecision; font-family:'SansSerif'; color-interpolation:linearRGB; color-rendering:optimizeQuality; image-rendering:optimizeQuality;"
    ><text x="0" xml:space="preserve" y="3.5" style="stroke:none;"
      >pred.</text
    ></g
    ><g style="stroke-linecap:butt; fill:rgb(217,83,25); text-rendering:geometricPrecision; image-rendering:optimizeQuality; color-rendering:optimizeQuality; stroke-linejoin:bevel; stroke-dasharray:8,8; stroke:rgb(217,83,25); color-interpolation:linearRGB; stroke-width:2.6667; stroke-miterlimit:1;"
    ><line y2="84.3607" style="fill:none;" x1="194" x2="234" y1="84.3607"
    /></g
    ><g style="stroke-linecap:butt; fill:rgb(38,38,38); text-rendering:geometricPrecision; color-rendering:optimizeQuality; image-rendering:optimizeQuality; stroke:rgb(38,38,38); color-interpolation:linearRGB; stroke-width:0.6667;"
    ><path d="M190 93 L190 62 L269 62 L269 93 Z" style="fill:none; fill-rule:evenodd;"
    /></g
  ></g
></svg
>
