<?xml version="1.0"?>
<!DOCTYPE svg PUBLIC '-//W3C//DTD SVG 1.0//EN'
          'http://www.w3.org/TR/2001/REC-SVG-20010904/DTD/svg10.dtd'>
<svg xmlns:xlink="http://www.w3.org/1999/xlink" style="fill-opacity:1; color-rendering:auto; color-interpolation:auto; text-rendering:auto; stroke:black; stroke-linecap:square; stroke-miterlimit:10; shape-rendering:auto; stroke-opacity:1; fill:black; stroke-dasharray:none; font-weight:normal; stroke-width:1; font-family:'Dialog'; font-style:normal; stroke-linejoin:miter; font-size:12px; stroke-dashoffset:0; image-rendering:auto;" width="304" height="304" xmlns="http://www.w3.org/2000/svg"
><!--Generated by the Batik Graphics2D SVG Generator--><defs id="genericDefs"
  /><g
  ><defs id="defs1"
    ><clipPath clipPathUnits="userSpaceOnUse" id="clipPath1"
      ><path d="M0 0 L304 0 L304 304 L0 304 L0 0 Z"
      /></clipPath
      ><font horiz-adv-x="49.995422" id="font1"
      ><font-face ascent="75.543076" descent="19.148254" units-per-em="100" style="font-style:normal; font-family:SansSerif; font-weight:bold;"
        /><missing-glyph horiz-adv-x="49.995422" d=""
        /><glyph unicode="f" horiz-adv-x="33.29695" d="M31.2969 52.9062 L31.2969 43.5938 L23 43.5938 L23 0 L9 0 L9 43.5938 L1.4062 43.5938 L1.4062 52.9062 L9 52.9062 L9 59.4062 C9 68.5 13.5 72.9062 22.7969 72.9062 C24.7031 72.9062 28.2031 72.7969 30.7969 72.5938 L30.7969 62.0938 C29.5938 62.2969 28 62.4062 26.7969 62.4062 C24.2031 62.4062 23 61 23 58.2031 L23 52.9062 Z"
        /><glyph unicode="n" horiz-adv-x="61.094406" d="M6.2969 54 L20.2969 54 L20.2969 46.2031 C24.2969 52.2031 29.2031 54.9062 36.5 54.9062 C48 54.9062 54.5938 48.0938 54.5938 36.2031 L54.5938 0 L40.5938 0 L40.5938 33.2969 C40.5938 39.7031 37.5938 43 31.5938 43 C24.7969 43 20.2969 38.7969 20.2969 32.4062 L20.2969 0 L6.2969 0 Z"
        /><glyph unicode="I" horiz-adv-x="27.797455" d="M21.2969 72.9062 L21.2969 0 L6.2969 0 L6.2969 72.9062 Z"
        /><glyph unicode="0" horiz-adv-x="55.59491" d="M27.2969 72.4062 C35.5938 72.4062 42.5 68.7031 46.7031 61.9062 C50.0938 56.4062 51.7031 47.5938 51.7031 34.5938 C51.7031 21.4062 49.7031 12.2031 45.7031 6.7969 C41.2969 0.7969 35 -2.2969 27.2969 -2.2969 C19 -2.2969 12.0938 1.5 7.9062 8.2031 C4.5938 13.5938 2.9062 22.5 2.9062 35 C2.9062 48.7031 4.7969 57.7969 8.9062 63.2969 C13.2031 69.2031 19.7031 72.4062 27.2969 72.4062 ZM27.2969 61.0938 C23.2969 61.0938 20.2969 58.7031 18.7031 54.4062 C17.7031 51.5 16.9062 43.4062 16.9062 35.0938 C16.9062 25.7031 17.7031 18.2031 19.0938 15.2031 C20.7969 11.5938 23.5938 9.7031 27.2969 9.7031 C31.2969 9.7031 34.2969 12 35.9062 16.2031 C36.9062 19 37.7031 27 37.7031 34.9062 C37.7031 44.5938 36.9062 52.4062 35.5 55.4062 C33.7969 59.0938 30.9062 61.0938 27.2969 61.0938 Z"
        /><glyph unicode=" " horiz-adv-x="27.797455" d=""
        /><glyph unicode="1" horiz-adv-x="55.59491" d="M23.7969 48.9062 L6.7969 48.9062 L6.7969 58.2031 C19 58.2031 26.2969 62.5 28.5 70.9062 L37.7969 70.9062 L37.7969 0 L23.7969 0 Z"
        /><glyph unicode="m" horiz-adv-x="88.89186" d="M6 54 L19.9062 54 L19.9062 47.2969 C24.5 52.7969 28.5 54.9062 34.7031 54.9062 C41.4062 54.9062 46.7969 52 49.4062 46.9062 C53.5938 52.5 58.4062 54.9062 65.2031 54.9062 C76 54.9062 82.4062 48.7031 82.4062 38.2031 L82.4062 0 L68.4062 0 L68.4062 36 C68.4062 40.2969 65.5 43 60.7969 43 C54.7969 43 51.2031 39 51.2031 32.4062 L51.2031 0 L37.2031 0 L37.2031 36 C37.2031 40.2969 34.2969 43 29.5938 43 C23.5938 43 20 39 20 32.4062 L20 0 L6 0 Z"
        /><glyph unicode="y" horiz-adv-x="55.59491" d="M39.4062 54 L53.7969 54 L31.5938 -9.9062 C29.2969 -16.2969 27.5938 -18.5938 23.7031 -20.2031 C21.2969 -21.2031 17.0938 -21.9062 13.5938 -21.9062 C11.9062 -21.9062 10.7031 -21.7969 8.5938 -21.5 L8.5938 -11 C10.4062 -11.5 11.2031 -11.5938 12.2969 -11.5938 C17.2031 -11.5938 21 -7.7031 21 -2.5938 L21 -2.2969 L21 -2.2031 L0.9062 54 L16.2969 54 L28.2031 14.7031 Z"
        /><glyph unicode="s" horiz-adv-x="55.59491" d="M50.5 36.5938 L37 36.5938 C36.9062 41.5 33.5938 43.9062 26.9062 43.9062 C22 43.9062 18.7969 41.9062 18.7969 38.9062 C18.7969 36.7031 19.7969 35.9062 23.7031 34.7031 L41.4062 29.5938 C48.5 27.5 52 23 52 16 C52 10.7031 49.5938 5.7031 45.5938 2.5 C41.5938 -0.7031 35.9062 -2.2969 28.4062 -2.2969 C12 -2.2969 3.2969 3.9062 2.9062 15.7031 L16.5938 15.7031 C17.2031 12.7969 17.7969 11.7031 19.2969 10.5938 C21.0938 9.4062 24 8.7031 27.5938 8.7031 C34.0938 8.7031 38 10.7031 38 14 C38 16.2031 36.7969 17.2969 33.2969 18.4062 L16.5938 23.5938 C11.4062 25.2969 9.7031 26.2031 7.7969 28.0938 C5.9062 30.2031 4.7969 33.2969 4.7969 36.9062 C4.7969 48 13.2969 54.9062 27 54.9062 C41.5 54.9062 50.2969 48 50.5 36.5938 Z"
      /></font
      ><font horiz-adv-x="27.797455" id="font2"
      ><font-face ascent="75.543076" descent="19.148254" units-per-em="100" style="font-style:normal; font-family:SansSerif; font-weight:normal;"
        /><missing-glyph horiz-adv-x="27.797455" d=""
        /><glyph unicode="0" horiz-adv-x="55.59491" d="M27.5 70.9062 C34.2031 70.9062 40.0938 68.0938 43.7969 63.0938 C48.5 56.7031 50.7031 47.5 50.7031 33.7031 C50.7031 10.4062 42.5 -2.2969 27.5 -2.2969 C12.2969 -2.2969 4.2969 10.4062 4.2969 34.2969 C4.2969 47.4062 6.5938 56.9062 11.2031 63.0938 C14.9062 68 20.9062 70.9062 27.5 70.9062 ZM27.5 63.0938 C18 63.0938 13.2969 53.5938 13.2969 34.2031 C13.2969 14.7969 18 5 27.2969 5 C37.0938 5 41.7031 14.4062 41.7031 34.5 C41.7031 53.5 37 63.0938 27.5 63.0938 Z"
        /><glyph unicode="1" horiz-adv-x="55.59491" d="M25.9062 50.5 L10.2031 50.5 L10.2031 56.7969 C23.7969 58.5 25.7969 60 28.9062 70.9062 L34.7031 70.9062 L34.7031 0 L25.9062 0 Z"
        /><glyph unicode="2" horiz-adv-x="55.59491" d="M50.5938 8.7031 L50.5938 0 L3.4062 0 C4.2031 15.5938 8.5 22.2969 23.2969 30.7031 L32.5 35.9062 C38.7969 39.5 42.0938 44.2969 42.0938 49.9062 C42.0938 57.5 36.0938 63.2031 28.0938 63.2031 C22.7969 63.2031 18.2031 60.5938 15.9062 56.2969 C14.7031 54 14.0938 51.0938 13.7969 46.2969 L5 46.2969 C5.2031 53.5 6.2969 57.9062 8.7969 61.7031 C12.7031 67.7031 19.4062 70.9062 28.4062 70.9062 C35.0938 70.9062 40.2969 69.0938 44.5 65.2969 C48.7031 61.5 51.0938 56 51.0938 50.0938 C51.0938 41.4062 46 34.0938 36.0938 28.7031 L26.0938 23.2969 C17.4062 18.2031 14.2031 14.5 13.2969 8.7031 Z"
        /><glyph unicode="3" horiz-adv-x="55.59491" d="M22.0938 32.5 L22.0938 40 C28.2969 40.0938 31.4062 40.5 33.7969 41.5 C37.7031 43.0938 39.5 46.0938 39.5 51.0938 C39.5 58.5938 34.7969 63.2031 27 63.2031 C21.5 63.2031 17.0938 60.7969 15.0938 56.9062 C14 54.7031 13.5938 52.2969 13.5 48 L4.7031 48 C5 63.0938 12.5938 70.9062 26.9062 70.9062 C40.4062 70.9062 48.5 63.5938 48.5 51.4062 C48.5 44.2969 45.2031 39.2969 38.5938 36.7031 C47.0938 33.7969 50.5938 28.7969 50.5938 19.7969 C50.5938 6.4062 41.2031 -2.2969 26.5938 -2.2969 C16.9062 -2.2969 9.9062 1.2031 6.2969 8 C4.5938 11.2031 3.5938 14.9062 3.2031 20.5938 L12 20.5938 C12.5938 10.2969 17.2969 5.5 26.9062 5.5 C36.0938 5.5 41.5938 10.7969 41.5938 19.7031 C41.5938 28.2031 36.5938 32.5938 26.9062 32.5938 L23.2031 32.5 Z"
        /><glyph unicode="4" horiz-adv-x="55.59491" d="M32.7031 17 L2.7969 17 L2.7969 26.2969 L35 70.9062 L41.5 70.9062 L41.5 24.9062 L52 24.9062 L52 17 L41.5 17 L41.5 0 L32.7031 0 ZM32.7031 24.9062 L32.7031 55.9062 L10.5 24.9062 Z"
        /><glyph unicode=")" horiz-adv-x="33.29695" d="M9.2969 -21.2031 L3.7969 -21.2031 C12.5938 -7 17.5 9.9062 17.5 25.7969 C17.5 41.7969 12.5938 58.5938 3.7969 72.9062 L9.2969 72.9062 C19.2969 59.7969 25.5938 41.5938 25.5938 25.7969 C25.5938 10.0938 19.2969 -8.0938 9.2969 -21.2031 Z"
        /><glyph unicode="m" horiz-adv-x="83.29237" d="M7 52.4062 L14.7031 52.4062 L14.7031 45 C19.2031 51.2969 23.7969 53.9062 30.7969 53.9062 C37.5938 53.9062 41.7969 51.5 44.9062 45.9062 C49.7969 51.7969 54 53.9062 61 53.9062 C70.7969 53.9062 76.2031 48.7031 76.2031 39.2969 L76.2031 0 L67.7969 0 L67.7969 36.0938 C67.7969 42.7031 64.2031 46.5938 58.0938 46.5938 C51.2969 46.5938 45.7969 40.5 45.7969 32.9062 L45.7969 0 L37.4062 0 L37.4062 36.0938 C37.4062 42.7969 33.9062 46.5938 27.7031 46.5938 C20.9062 46.5938 15.4062 40.5 15.4062 32.9062 L15.4062 0 L7 0 Z"
        /><glyph unicode="(" horiz-adv-x="33.29695" d="M23.5938 72.9062 L29.0938 72.9062 C20.2969 58.7031 15.4062 41.7969 15.4062 25.9062 C15.4062 9.9062 20.2969 -6.9062 29.0938 -21.2031 L23.5938 -21.2031 C13.5938 -8.0938 7.2969 10.0938 7.2969 25.9062 C7.2969 41.5938 13.5938 59.7969 23.5938 72.9062 Z"
        /><glyph unicode="s" horiz-adv-x="49.995422" d="M43.7969 37.7969 L35 37.7969 C34.7969 43.2969 31.2031 46.2031 24.5 46.2031 C17.7031 46.2031 13.4062 43.0938 13.4062 38.2969 C13.4062 34.5938 16.2969 32.4062 23.0938 30.7969 L31.0938 28.9062 C41.5 26.4062 45.9062 22.0938 45.9062 14.2969 C45.9062 4.2031 37.5 -2.2969 24.2969 -2.2969 C10.5938 -2.2969 3.7969 3.5 3.4062 15.5938 L12.2031 15.5938 C12.7031 11.9062 13.2969 10.4062 14.5938 8.9062 C16.7031 6.7031 20.5 5.4062 25 5.4062 C32.2969 5.4062 37.2031 8.7031 37.2031 13.5938 C37.2031 17.4062 34.9062 19.5 29.0938 20.9062 L21.2969 22.7969 C8.9062 25.7969 4.7031 29.7031 4.7031 37.9062 C4.7031 47.5938 12.5938 53.9062 24.7969 53.9062 C36.9062 53.9062 43.7031 48.0938 43.7969 37.7969 Z"
        /><glyph unicode="y" horiz-adv-x="49.995422" d="M38.7969 52.4062 L47.7969 52.4062 L24.5 -11 C22.9062 -15.2031 21.4062 -17.4062 18.7969 -19.2969 C16.5938 -20.9062 13.7031 -21.7969 11 -21.7969 C8.7969 -21.7969 7.0938 -21.4062 5.4062 -20.5 L5.4062 -13 C7.2031 -13.4062 8.5938 -13.5938 9.7969 -13.5938 C13.2969 -13.5938 15.2031 -12.2031 16.5 -8.5 L19.7031 -0.2031 L2 52.4062 L10.9062 52.4062 L24.2969 11.5938 Z"
        /><glyph unicode="a" horiz-adv-x="55.59491" d="M53.5 4.9062 L53.5 -1.4062 C50.7969 -2.0938 49.5 -2.2969 47.7969 -2.2969 C42.4062 -2.2969 39.7969 0.0938 39.2031 5.4062 C33.2969 0 28 -2.2969 21.4062 -2.2969 C10.7969 -2.2969 4.2031 3.7031 4.2031 13.2031 C4.2031 20 7.2969 24.7031 13.4062 27.2031 C16.5938 28.5 18.4062 28.9062 30.2031 30.4062 C36.7969 31.2031 38.9062 32.7031 38.9062 36.2031 L38.9062 38.4062 C38.9062 43.4062 34.7031 46.2031 27.2031 46.2031 C19.4062 46.2031 15.5938 43.2969 14.9062 36.9062 L6.5 36.9062 C6.7031 42.0938 7.7031 45.0938 10.0938 47.7969 C13.5938 51.7031 19.9062 53.9062 27.5 53.9062 C40.4062 53.9062 47.2031 48.9062 47.2031 39.5938 L47.2031 8.7969 C47.2031 6.2031 48.7969 4.7031 51.7031 4.7031 C52.2031 4.7031 52.5938 4.7031 53.5 4.9062 ZM38.9062 16.5 L38.9062 25.9062 C36.0938 24.5938 34.2969 24.2031 25.5 23 C16.5938 21.7031 12.9062 18.9062 12.9062 13.4062 C12.9062 8.0938 16.7031 5 23.2031 5 C28.0938 5 32.2031 6.5938 35.5938 9.7031 C38.0938 12 38.9062 13.7031 38.9062 16.5 Z"
        /><glyph unicode="l" horiz-adv-x="22.197968" d="M15.2031 72.9062 L15.2031 0 L6.7969 0 L6.7969 72.9062 Z"
        /><glyph unicode="e" horiz-adv-x="55.59491" d="M51.2969 23.4062 L12.7031 23.4062 C12.7969 18.2031 13.5 15.2031 15.5 12.2031 C18.2969 7.7969 22.7969 5.4062 28.0938 5.4062 C34.7969 5.4062 39.5 9 41.7969 15.9062 L50.2031 15.9062 C48.0938 4.5 39.7969 -2.2969 27.7969 -2.2969 C13.0938 -2.2969 4 8.2969 4 25.5 C4 42.7031 13.4062 53.9062 28 53.9062 C37.7969 53.9062 45.7969 48.7031 49.2031 40.0938 C50.7031 36.2031 51.2969 31.4062 51.2969 23.4062 ZM12.9062 30.2031 L42.2969 30.2031 C42.4062 30.4062 42.4062 30.5938 42.4062 30.7969 C42.4062 39.4062 36.0938 46.2031 27.9062 46.2031 C19.5 46.2031 13.5938 39.9062 12.9062 30.2031 Z"
        /><glyph unicode=" " horiz-adv-x="27.797455" d=""
        /><glyph unicode="i" horiz-adv-x="22.197968" d="M15 52.4062 L15 0 L6.7031 0 L6.7031 52.4062 ZM15 72.9062 L15 62.4062 L6.5938 62.4062 L6.5938 72.9062 Z"
        /><glyph unicode="t" horiz-adv-x="27.797455" d="M25.4062 52.4062 L25.4062 45.5938 L16.7969 45.5938 L16.7969 9.7031 C16.7969 6 17.7969 5 21.4062 5 C23 5 24.2969 5.0938 25.4062 5.4062 L25.4062 -1.5938 C22.5938 -2.0938 20.5938 -2.2969 18.5938 -2.2969 C12.0938 -2.2969 8.5 0.7031 8.5 6 L8.5 45.5938 L1.4062 45.5938 L1.4062 52.4062 L8.5 52.4062 L8.5 66.7969 L16.7969 66.7969 L16.7969 52.4062 Z"
        /><glyph unicode="u" horiz-adv-x="55.59491" d="M48.2031 0 L40.7031 0 L40.7031 7.2969 C35.7969 0.4062 30.9062 -2.2969 23.2031 -2.2969 C13 -2.2969 6.5 3.2969 6.5 12 L6.5 52.4062 L14.7969 52.4062 L14.7969 15.2969 C14.7969 9 19 5 25.5938 5 C34.2969 5 39.9062 12 39.9062 22.7031 L39.9062 52.4062 L48.2031 52.4062 Z"
        /><glyph unicode="d" horiz-adv-x="55.59491" d="M49.5 72.9062 L49.5 0 L42.0938 0 L42.0938 6.9062 C37.5938 0.4062 32.5938 -2.2969 25.4062 -2.2969 C11.2969 -2.2969 2.5938 8.5938 2.5938 26.2969 C2.5938 43 11.5 53.9062 25.0938 53.9062 C32.0938 53.9062 37.7031 51.0938 41.2031 45.7969 L41.2031 72.9062 ZM26.5 46.0938 C17.4062 46.0938 11.2969 38 11.2969 25.7969 C11.2969 13.5938 17.4062 5.5 26.5938 5.5 C35.4062 5.5 41.2031 13.5 41.2031 25.5938 C41.2031 38.0938 35.5 46.0938 26.5 46.0938 Z"
        /><glyph unicode="n" horiz-adv-x="55.59491" d="M7 52.4062 L14.7031 52.4062 L14.7031 43.5938 C19.2969 50.9062 24.2969 53.9062 32.0938 53.9062 C42.2031 53.9062 48.7031 48.2969 48.7031 39.5938 L48.7031 0 L40.4062 0 L40.4062 36.2969 C40.4062 42.5938 36.2031 46.5938 29.5938 46.5938 C21 46.5938 15.4062 39.5938 15.4062 28.9062 L15.4062 0 L7 0 Z"
        /><glyph unicode="o" horiz-adv-x="55.59491" d="M27.2031 53.9062 C42.2969 53.9062 51 43.5 51 25.4062 C51 8.2031 42 -2.2969 27.2969 -2.2969 C12.4062 -2.2969 3.5938 8.2031 3.5938 25.7969 C3.5938 43.4062 12.5 53.9062 27.2031 53.9062 ZM27.2969 46.2031 C18 46.2031 12.2969 38.4062 12.2969 25.7969 C12.2969 13.0938 18 5.4062 27.2969 5.4062 C36.5 5.4062 42.2969 13.2031 42.2969 25.5 C42.2969 38.5 36.7031 46.2031 27.2969 46.2031 Z"
        /><glyph unicode="c" horiz-adv-x="49.995422" d="M47.0938 34.7969 L38.7031 34.7969 C37.7031 42.0938 33.2969 46.2031 26.2969 46.2031 C17.2031 46.2031 11.7969 38.4062 11.7969 25.2969 C11.7969 12.9062 17.2969 5.4062 26.5 5.4062 C33.5938 5.4062 37.9062 9.5938 39.2969 18 L47.7031 18 C46.7031 5.2031 38.7969 -2.2969 26.2969 -2.2969 C12.0938 -2.2969 3.0938 8.4062 3.0938 25.2969 C3.0938 42.7031 12.2969 53.9062 26.4062 53.9062 C33.7031 53.9062 40 51 43.5938 46.0938 C45.5938 43.2031 46.7031 39.9062 47.0938 34.7969 Z"
        /><glyph unicode="6" horiz-adv-x="55.59491" d="M49.7969 52.4062 L41 52.4062 C39.5938 59.2031 35.2969 63.0938 29.0938 63.0938 C19 63.0938 13.4062 53.5 13.2969 36.2031 C17.0938 41.4062 22.5938 44.0938 29.5938 44.0938 C42.2969 44.0938 51.2969 34.7969 51.2969 21.5938 C51.2969 7.7031 41.5938 -2.2969 28.0938 -2.2969 C20.2969 -2.2969 14.0938 0.7969 10.2969 6.5 C6.0938 12.7969 4.2969 20.4062 4.2969 32.2969 C4.2969 45.2031 6.2969 53.9062 10.7031 60.7969 C14.9062 67.0938 21.9062 70.9062 29.7031 70.9062 C40.5 70.9062 48.0938 64 49.7969 52.4062 ZM28.5 36.2969 C19.7969 36.2969 13.7969 30.2031 13.7969 21.4062 C13.7969 12.2969 20 5.5 28.2031 5.5 C36.2969 5.5 42.2969 12 42.2969 20.9062 C42.2969 30.4062 37 36.2969 28.5 36.2969 Z"
        /><glyph unicode="8" horiz-adv-x="55.59491" d="M39.0938 37.2969 C47.2969 33.4062 51.2969 27.5 51.2969 19.5938 C51.2969 6.7031 41.5 -2.2969 27.5 -2.2969 C13.5 -2.2969 3.7031 6.7031 3.7031 19.7031 C3.7031 27.5 7.7031 33.4062 15.7969 37.2969 C8.5938 41.7969 6.2031 45.4062 6.2031 52 C6.2031 63.0938 15 70.9062 27.5 70.9062 C40.0938 70.9062 48.7969 63.0938 48.7969 52 C48.7969 45.2969 46.4062 41.7031 39.0938 37.2969 ZM27.5 63.0938 C20.0938 63.0938 15.2031 58.7031 15.2031 51.9062 C15.2031 45.2031 20.0938 40.7969 27.5 40.7969 C34.9062 40.7969 39.7969 45.2031 39.7969 51.7969 C39.7969 58.7031 35 63.0938 27.5 63.0938 ZM27.5 33.4062 C18.7031 33.4062 12.7031 27.7969 12.7031 19.5 C12.7031 11.2031 18.7031 5.5 27.2969 5.5 C36.2969 5.5 42.2969 11.0938 42.2969 19.5 C42.2969 27.7969 36.2969 33.4062 27.5 33.4062 Z"
        /><glyph unicode="r" horiz-adv-x="33.29695" d="M6.9062 52.4062 L14.5938 52.4062 L14.5938 42.9062 C19.4062 50.7031 23.5 53.9062 28.9062 53.9062 C30 53.9062 30.7031 53.7969 32.0938 53.5938 L32.0938 45.0938 C26.2969 45 23.7969 44.4062 21.2031 42.5 C17.2031 39.5938 15.2969 34.7031 15.2969 27.2031 L15.2969 0 L6.9062 0 Z"
        /><glyph unicode="p" horiz-adv-x="55.59491" d="M5.4062 -21.7969 L5.4062 52.4062 L13.0938 52.4062 L13.0938 44.5 C17 50.7031 22.7031 53.9062 29.7969 53.9062 C43.7031 53.9062 52.2969 42.9062 52.2969 25.2969 C52.2969 8.5938 43.4062 -2.2969 29.9062 -2.2969 C23.0938 -2.2969 18.2031 0.0938 13.7969 5.5 L13.7969 -21.7969 ZM28.4062 46.0938 C19.5938 46.0938 13.7969 38.0938 13.7969 25.7969 C13.7969 13.5 19.5938 5.5 28.4062 5.5 C37.5 5.5 43.5938 13.5938 43.5938 25.5 C43.5938 38 37.5938 46.0938 28.4062 46.0938 Z"
        /><glyph unicode="#" horiz-adv-x="55.59491" d="M48.5 69.7031 L44.9062 50.0938 L54.2031 50.0938 L54.2031 43.2969 L43.5938 43.2969 L40.5 25.9062 L51 25.9062 L51 19.0938 L39.2969 19.0938 L35.4062 -2 L27.7969 -2 L31.5938 19.0938 L19.2031 19.0938 L15.2969 -2 L7.7031 -2 L11.5 19.0938 L1.4062 19.0938 L1.4062 25.9062 L12.7969 25.9062 L15.9062 43.2969 L5.0938 43.2969 L5.0938 50.0938 L17.2031 50.0938 L20.7969 69.7031 L28.4062 69.7031 L24.7969 50.0938 L37.2969 50.0938 L40.7969 69.7031 ZM36 43.2969 L23.5938 43.2969 L20.4062 25.9062 L32.9062 25.9062 Z"
      /></font
    ></defs
    ><g style="fill:white; stroke:white;"
    ><rect x="0" y="0" width="304" style="clip-path:url(#clipPath1); stroke:none;" height="304"
    /></g
    ><g style="fill:white; text-rendering:optimizeSpeed; color-rendering:optimizeSpeed; image-rendering:optimizeSpeed; shape-rendering:crispEdges; stroke:white; color-interpolation:sRGB;"
    ><rect x="0" width="304" height="304" y="0" style="stroke:none;"
      /><path style="stroke:none;" d="M47 268 L275 268 L275 23 L47 23 Z"
    /></g
    ><g transform="translate(161.0002,20.25)" style="font-size:14.6667px; text-rendering:geometricPrecision; image-rendering:optimizeQuality; color-rendering:optimizeQuality; font-family:'SansSerif'; color-interpolation:linearRGB; font-weight:bold;"
    ><text x="-40" xml:space="preserve" y="-3" style="stroke:none;"
      >sym1 10 Inf</text
    ></g
    ><g style="fill-opacity:0.6; fill:rgb(128,128,128); text-rendering:optimizeSpeed; image-rendering:optimizeSpeed; color-rendering:optimizeSpeed; shape-rendering:crispEdges; stroke:rgb(128,128,128); color-interpolation:sRGB; stroke-opacity:0.6;"
    ><path style="stroke:none;" d="M58.4 268 L58.4 22.9708 L47 22.9708 L47 268 ZM69.8 268 L69.8 52.75 L58.4 52.75 L58.4 268 ZM81.2 268 L81.2 154.25 L69.8 154.25 L69.8 268 ZM92.6 268 L92.6 168.25 L81.2 168.25 L81.2 268 ZM104 268 L104 184 L92.6 184 L92.6 268 ZM115.4 268 L115.4 220.75 L104 220.75 L104 268 ZM126.8 268 L126.8 234.75 L115.4 234.75 L115.4 268 ZM138.2 268 L138.2 240 L126.8 240 L126.8 268 ZM149.6 268 L149.6 250.5 L138.2 250.5 L138.2 268 ZM161 268 L161 257.5 L149.6 257.5 L149.6 268 ZM172.4 268 L172.4 261 L161 261 L161 268 ZM183.8 268 L183.8 257.5 L172.4 257.5 L172.4 268 ZM195.2 268 L195.2 259.25 L183.8 259.25 L183.8 268 ZM206.6 268 L206.6 266.25 L195.2 266.25 L195.2 268 ZM240.8 268 L240.8 264.5 L229.4 264.5 L229.4 268 Z"
    /></g
    ><g style="text-rendering:geometricPrecision; stroke-width:0.6667; color-interpolation:linearRGB; color-rendering:optimizeQuality; image-rendering:optimizeQuality;"
    ><line y2="22.9708" style="fill:none;" x1="47" x2="47" y1="268"
      /><path d="M58.4 22.9708 L58.4 268 L58.4 268" style="fill:none; fill-rule:evenodd;"
      /><path d="M58.4 52.75 L69.8 52.75 L69.8 268 L69.8 268" style="fill:none; fill-rule:evenodd;"
      /><path d="M69.8 154.25 L81.2 154.25 L81.2 268 L81.2 268" style="fill:none; fill-rule:evenodd;"
      /><path d="M81.2 168.25 L92.6 168.25 L92.6 268 L92.6 268" style="fill:none; fill-rule:evenodd;"
      /><path d="M92.6 184 L104 184 L104 268 L104 268" style="fill:none; fill-rule:evenodd;"
      /><path d="M104 220.75 L115.4 220.75 L115.4 268 L115.4 268" style="fill:none; fill-rule:evenodd;"
      /><path d="M115.4 234.75 L126.8 234.75 L126.8 268 L126.8 268" style="fill:none; fill-rule:evenodd;"
      /><path d="M126.8 240 L138.2 240 L138.2 268 L138.2 268" style="fill:none; fill-rule:evenodd;"
      /><path d="M138.2 250.5 L149.6 250.5 L149.6 268 L149.6 268" style="fill:none; fill-rule:evenodd;"
      /><path d="M149.6 257.5 L161 257.5 L161 268 L161 268" style="fill:none; fill-rule:evenodd;"
      /><line y2="261" style="fill:none;" x1="161" x2="172.4" y1="261"
      /><path d="M172.4 268 L172.4 268 L172.4 257.5 L183.8 257.5 L183.8 268 L183.8 268" style="fill:none; fill-rule:evenodd;"
      /><path d="M183.8 259.25 L195.2 259.25 L195.2 268 L195.2 268" style="fill:none; fill-rule:evenodd;"
      /><path d="M195.2 266.25 L206.6 266.25 L206.6 268 L206.6 268" style="fill:none; fill-rule:evenodd;"
      /><path d="M206.6 268 L218 268 L218 268 L218 268" style="fill:none; fill-rule:evenodd;"
      /><line y2="268" style="fill:none;" x1="218" x2="229.4" y1="268"
      /><path d="M229.4 268 L229.4 268 L229.4 264.5 L240.8 264.5 L240.8 268 L240.8 268" style="fill:none; fill-rule:evenodd;"
      /><path d="M240.8 268 L252.2 268 L252.2 268 L252.2 268" style="fill:none; fill-rule:evenodd;"
      /><path d="M252.2 268 L263.6 268 L263.6 268 L263.6 268" style="fill:none; fill-rule:evenodd;"
      /><path d="M263.6 268 L275 268 L275 268" style="fill:none; fill-rule:evenodd;"
      /><line x1="47" x2="275" y1="268" style="fill:none; stroke-linejoin:round; stroke:rgb(38,38,38);" y2="268"
      /><line x1="47" x2="275" y1="23" style="fill:none; stroke-linejoin:round; stroke:rgb(38,38,38);" y2="23"
      /><line x1="47" x2="47" y1="268" style="fill:none; stroke-linejoin:round; stroke:rgb(38,38,38);" y2="265.55"
      /><line x1="104" x2="104" y1="268" style="fill:none; stroke-linejoin:round; stroke:rgb(38,38,38);" y2="265.55"
      /><line x1="161" x2="161" y1="268" style="fill:none; stroke-linejoin:round; stroke:rgb(38,38,38);" y2="265.55"
      /><line x1="218" x2="218" y1="268" style="fill:none; stroke-linejoin:round; stroke:rgb(38,38,38);" y2="265.55"
      /><line x1="275" x2="275" y1="268" style="fill:none; stroke-linejoin:round; stroke:rgb(38,38,38);" y2="265.55"
      /><line x1="47" x2="47" y1="23" style="fill:none; stroke-linejoin:round; stroke:rgb(38,38,38);" y2="25.45"
      /><line x1="104" x2="104" y1="23" style="fill:none; stroke-linejoin:round; stroke:rgb(38,38,38);" y2="25.45"
      /><line x1="161" x2="161" y1="23" style="fill:none; stroke-linejoin:round; stroke:rgb(38,38,38);" y2="25.45"
      /><line x1="218" x2="218" y1="23" style="fill:none; stroke-linejoin:round; stroke:rgb(38,38,38);" y2="25.45"
      /><line x1="275" x2="275" y1="23" style="fill:none; stroke-linejoin:round; stroke:rgb(38,38,38);" y2="25.45"
    /></g
    ><g transform="translate(47,273.3333)" style="font-size:13.3333px; fill:rgb(38,38,38); text-rendering:geometricPrecision; image-rendering:optimizeQuality; color-rendering:optimizeQuality; font-family:'SansSerif'; stroke:rgb(38,38,38); color-interpolation:linearRGB;"
    ><text x="-4" xml:space="preserve" y="11" style="stroke:none;"
      >0</text
    ></g
    ><g transform="translate(104,273.3333)" style="font-size:13.3333px; fill:rgb(38,38,38); text-rendering:geometricPrecision; image-rendering:optimizeQuality; color-rendering:optimizeQuality; font-family:'SansSerif'; stroke:rgb(38,38,38); color-interpolation:linearRGB;"
    ><text x="-7.5" xml:space="preserve" y="11" style="stroke:none;"
      >10</text
    ></g
    ><g transform="translate(161,273.3333)" style="font-size:13.3333px; fill:rgb(38,38,38); text-rendering:geometricPrecision; image-rendering:optimizeQuality; color-rendering:optimizeQuality; font-family:'SansSerif'; stroke:rgb(38,38,38); color-interpolation:linearRGB;"
    ><text x="-7.5" xml:space="preserve" y="11" style="stroke:none;"
      >20</text
    ></g
    ><g transform="translate(218,273.3333)" style="font-size:13.3333px; fill:rgb(38,38,38); text-rendering:geometricPrecision; image-rendering:optimizeQuality; color-rendering:optimizeQuality; font-family:'SansSerif'; stroke:rgb(38,38,38); color-interpolation:linearRGB;"
    ><text x="-7.5" xml:space="preserve" y="11" style="stroke:none;"
      >30</text
    ></g
    ><g transform="translate(275,273.3333)" style="font-size:13.3333px; fill:rgb(38,38,38); text-rendering:geometricPrecision; image-rendering:optimizeQuality; color-rendering:optimizeQuality; font-family:'SansSerif'; stroke:rgb(38,38,38); color-interpolation:linearRGB;"
    ><text x="-7.5" xml:space="preserve" y="11" style="stroke:none;"
      >40</text
    ></g
    ><g transform="translate(161.0001,288.6667)" style="font-size:14.6667px; fill:rgb(38,38,38); text-rendering:geometricPrecision; image-rendering:optimizeQuality; color-rendering:optimizeQuality; font-family:'SansSerif'; stroke:rgb(38,38,38); color-interpolation:linearRGB;"
    ><text x="-75.5" xml:space="preserve" y="12" style="stroke:none;"
      >conduction delays (ms)</text
    ></g
    ><g style="fill:rgb(38,38,38); text-rendering:geometricPrecision; image-rendering:optimizeQuality; color-rendering:optimizeQuality; stroke-linejoin:round; stroke:rgb(38,38,38); color-interpolation:linearRGB; stroke-width:0.6667;"
    ><line y2="23" style="fill:none;" x1="47" x2="47" y1="268"
      /><line y2="23" style="fill:none;" x1="275" x2="275" y1="268"
      /><line y2="268" style="fill:none;" x1="47" x2="49.45" y1="268"
      /><line y2="233" style="fill:none;" x1="47" x2="49.45" y1="233"
      /><line y2="198" style="fill:none;" x1="47" x2="49.45" y1="198"
      /><line y2="163" style="fill:none;" x1="47" x2="49.45" y1="163"
      /><line y2="128" style="fill:none;" x1="47" x2="49.45" y1="128"
      /><line y2="93" style="fill:none;" x1="47" x2="49.45" y1="93"
      /><line y2="58" style="fill:none;" x1="47" x2="49.45" y1="58"
      /><line y2="23" style="fill:none;" x1="47" x2="49.45" y1="23"
      /><line y2="268" style="fill:none;" x1="275" x2="272.55" y1="268"
      /><line y2="233" style="fill:none;" x1="275" x2="272.55" y1="233"
      /><line y2="198" style="fill:none;" x1="275" x2="272.55" y1="198"
      /><line y2="163" style="fill:none;" x1="275" x2="272.55" y1="163"
      /><line y2="128" style="fill:none;" x1="275" x2="272.55" y1="128"
      /><line y2="93" style="fill:none;" x1="275" x2="272.55" y1="93"
      /><line y2="58" style="fill:none;" x1="275" x2="272.55" y1="58"
      /><line y2="23" style="fill:none;" x1="275" x2="272.55" y1="23"
    /></g
    ><g transform="translate(41.6667,268)" style="font-size:13.3333px; fill:rgb(38,38,38); text-rendering:geometricPrecision; image-rendering:optimizeQuality; color-rendering:optimizeQuality; font-family:'SansSerif'; stroke:rgb(38,38,38); color-interpolation:linearRGB;"
    ><text x="-8" xml:space="preserve" y="4" style="stroke:none;"
      >0</text
    ></g
    ><g transform="translate(41.6667,233)" style="font-size:13.3333px; fill:rgb(38,38,38); text-rendering:geometricPrecision; image-rendering:optimizeQuality; color-rendering:optimizeQuality; font-family:'SansSerif'; stroke:rgb(38,38,38); color-interpolation:linearRGB;"
    ><text x="-15" xml:space="preserve" y="4" style="stroke:none;"
      >20</text
    ></g
    ><g transform="translate(41.6667,198)" style="font-size:13.3333px; fill:rgb(38,38,38); text-rendering:geometricPrecision; image-rendering:optimizeQuality; color-rendering:optimizeQuality; font-family:'SansSerif'; stroke:rgb(38,38,38); color-interpolation:linearRGB;"
    ><text x="-15" xml:space="preserve" y="4" style="stroke:none;"
      >40</text
    ></g
    ><g transform="translate(41.6667,163)" style="font-size:13.3333px; fill:rgb(38,38,38); text-rendering:geometricPrecision; image-rendering:optimizeQuality; color-rendering:optimizeQuality; font-family:'SansSerif'; stroke:rgb(38,38,38); color-interpolation:linearRGB;"
    ><text x="-15" xml:space="preserve" y="4" style="stroke:none;"
      >60</text
    ></g
    ><g transform="translate(41.6667,128)" style="font-size:13.3333px; fill:rgb(38,38,38); text-rendering:geometricPrecision; image-rendering:optimizeQuality; color-rendering:optimizeQuality; font-family:'SansSerif'; stroke:rgb(38,38,38); color-interpolation:linearRGB;"
    ><text x="-15" xml:space="preserve" y="4" style="stroke:none;"
      >80</text
    ></g
    ><g transform="translate(41.6667,93)" style="font-size:13.3333px; fill:rgb(38,38,38); text-rendering:geometricPrecision; image-rendering:optimizeQuality; color-rendering:optimizeQuality; font-family:'SansSerif'; stroke:rgb(38,38,38); color-interpolation:linearRGB;"
    ><text x="-23" xml:space="preserve" y="4" style="stroke:none;"
      >100</text
    ></g
    ><g transform="translate(41.6667,58)" style="font-size:13.3333px; fill:rgb(38,38,38); text-rendering:geometricPrecision; image-rendering:optimizeQuality; color-rendering:optimizeQuality; font-family:'SansSerif'; stroke:rgb(38,38,38); color-interpolation:linearRGB;"
    ><text x="-23" xml:space="preserve" y="4" style="stroke:none;"
      >120</text
    ></g
    ><g transform="translate(41.6667,23)" style="font-size:13.3333px; fill:rgb(38,38,38); text-rendering:geometricPrecision; image-rendering:optimizeQuality; color-rendering:optimizeQuality; font-family:'SansSerif'; stroke:rgb(38,38,38); color-interpolation:linearRGB;"
    ><text x="-23" xml:space="preserve" y="4" style="stroke:none;"
      >140</text
    ></g
    ><g transform="translate(14.6667,145.4999) rotate(-90)" style="font-size:14.6667px; fill:rgb(38,38,38); text-rendering:geometricPrecision; image-rendering:optimizeQuality; color-rendering:optimizeQuality; font-family:'SansSerif'; stroke:rgb(38,38,38); color-interpolation:linearRGB;"
    ><text x="-46" xml:space="preserve" y="-3" style="stroke:none;"
      >#parcels pairs</text
    ></g
  ></g
></svg
>
